$ 1 0.000005 10.20027730826997 50 5 43
r 384 192 432 192 0 22000
t 80 192 48 192 0 1 -0.6100456297372423 0.6803035281293157 434
t 432 192 464 192 0 -1 4.310081354709766 -2.1999992938503965e-9 274
w 48 208 48 288 0
w 48 80 112 80 0
w 464 80 368 80 0
w 304 80 240 80 0
R 592 80 640 80 0 0 40 5 0 0 0.5
g 464 512 464 528 0
S 128 192 128 128 0 0 false 0 2
g 144 128 144 112 0
w 464 288 464 304 2
t 496 272 528 272 0 -1 4.31008135470967 -2.1999992938503965e-9 274
w 464 80 528 80 0
t 16 272 -16 272 0 1 -0.6100456297366872 0.6803035281293184 434
w -16 288 -16 304 2
w 16 272 64 272 0
w -16 256 -16 192 0
w -16 80 48 80 0
w 448 272 496 272 0
g 400 128 400 112 0
S 384 192 384 128 0 0 false 0 2
S 320 272 320 208 0 0 false 0 2
g 336 208 336 192 0
g 208 208 208 192 0
S 192 272 192 208 0 0 false 0 2
r 448 272 368 272 0 22000
w 528 256 528 192 0
w 464 176 464 80 0
w -16 192 -16 80 0
w 48 176 48 80 0
w 528 192 528 80 0
r 128 192 80 192 0 10000
r 144 272 64 272 0 10000
g 48 512 48 528 0
r 464 384 464 320 0 47
t 80 496 48 496 0 1 -2.462412547880146 2.1999999995688344e-9 434
w 48 464 48 480 0
w 464 464 464 480 0
t 432 496 464 496 0 -1 0.009649812701326659 -0.6802688303795078 274
S 224 352 224 304 0 0 false 0 2
g 208 304 208 288 0
r -16 384 -16 320 0 47
r 48 384 48 320 0 47
r 528 384 528 320 0 47
w 112 128 112 80 0
w 368 128 368 80 0
w 112 80 176 80 0
w 304 80 368 80 0
w 240 304 240 224 0
r 112 496 160 496 0 22000
w 288 496 224 496 3
w 304 208 304 80 0
w 320 272 368 272 1
w 144 272 192 272 1
w 176 208 176 80 0
w 176 80 240 80 0
x 115 64 167 67 4 24 pin\s6
x 184 62 236 65 4 24 pin\s7
x 381 63 433 66 6 24 pin\s9
x 310 64 362 67 6 24 pin\s8
x 249 343 301 346 4 24 pin\s5
w 528 80 592 80 3
d 112 304 160 304 2 default-led
d 112 432 160 432 2 default-led
d 112 368 160 368 2 default-led
d 160 336 112 336 2 default-led
d 160 400 112 400 2 default-led
d 160 464 112 464 2 default-led
w 160 304 160 336 0
w 160 336 160 368 0
w 112 304 112 336 0
w 112 336 112 368 0
w 48 384 112 384 0
w 432 384 256 384 3
w 464 464 464 448 1
w 432 608 256 608 3
w -16 608 112 608 0
w 112 656 112 688 0
w 112 624 112 656 0
w 112 560 112 592 0
w 112 528 112 560 0
w 160 656 160 688 0
w 160 624 160 656 0
w 160 560 160 592 0
w 160 528 160 560 0
d 160 688 112 688 2 default-led
d 160 624 112 624 2 default-led
d 160 560 112 560 2 default-led
d 112 592 160 592 2 default-led
d 112 656 160 656 2 default-led
d 112 528 160 528 2 default-led
w 528 384 528 464 0
w 528 464 528 608 0
w 16 720 112 720 0
w 288 720 224 720 3
r 112 720 160 720 0 22000
w 224 496 224 720 0
t 496 720 528 720 0 -1 0.009649812701353188 -0.6802688303795775 274
t 16 720 -16 720 0 1 -2.462412547880496 2.199999999568846e-9 434
g -16 736 -16 752 0
g 528 736 528 752 0
w 112 624 112 608 0
w 112 592 112 608 0
w 160 592 160 608 0
w 160 608 160 624 0
w -16 304 -16 320 1
w 48 304 48 320 1
w 528 288 528 304 2
w 464 304 464 320 1
w 112 368 112 384 0
w 160 368 160 384 0
w 160 384 160 400 0
w 160 400 160 432 0
w 160 432 160 464 0
w 112 384 112 400 0
w 112 400 112 432 0
w 112 432 112 464 0
w 432 384 464 384 0
w 256 384 160 384 0
w 224 352 224 496 0
w -16 384 -16 608 0
w 528 672 528 656 2
w 464 288 464 208 0
w 528 304 528 320 1
w 48 288 48 304 2
w 240 224 240 208 1
w 240 208 240 192 2
w 240 192 240 80 0
w 160 720 224 720 3
w 352 720 496 720 0
w 464 448 464 432 2
w 464 432 464 384 0
w 528 672 528 688 1
w 528 688 528 704 0
w 528 656 528 608 0
w 48 384 48 464 0
w -16 608 -16 704 0
x 11 635 100 638 4 12 actual\sled\schains
x -3 674 102 677 4 12 but\sthe\sgoal\sis\sstill\sa
x 4 661 101 664 4 12 elements\sthan\sthis
x 7 688 103 691 4 12 target\sof\s35-40mA
x 147 31 364 34 4 12 utilizing\sPIC16F1574\swith\s4\shi-res\sPWMs
x 114 16 394 19 4 12 upper\sfour\sswitches\sare\splaceholders\sfor\sPWM\ssignal
x 251 319 379 322 4 12 switches\sdirectional\sflow
w 80 496 112 496 0
w 160 496 224 496 3
w 400 496 432 496 0
w 256 608 160 608 0
w 432 608 528 608 0
x 24 648 100 651 4 12 will\shave\smore
x 102 294 167 297 4 12 pins\s6/9\spair
x 104 518 169 521 4 12 pins\s7/8\spair
x -220 204 -84 207 4 12 to\stest,\stoggle\sall\sswitches
x -219 221 -98 224 4 12 left\sor\sall\sswitches\sright
r 352 496 288 496 0 100
r 352 720 288 720 0 100
w 352 496 400 496 0
x 417 127 433 130 4 24 A
x 479 209 495 212 4 24 A
x 173 407 189 410 4 24 A
x 78 408 95 411 4 24 C
x 17 194 34 197 4 24 C
x 82 131 99 134 4 24 C
x 323 131 339 134 4 24 B
x 552 278 568 281 4 24 B
x 170 593 186 596 4 24 B
x 81 594 98 597 4 24 D
x -50 276 -33 279 4 24 D
x 198 133 215 136 4 24 D
x -47 728 -30 731 4 24 D
x 16 498 33 501 4 24 C
x 543 727 559 730 4 24 B
x 479 502 495 505 4 24 A
