EESchema Schematic File Version 4
EELAYER 30 0
EELAYER END
$Descr A4 11693 8268
encoding utf-8
Sheet 1 1
Title ""
Date ""
Rev ""
Comp ""
Comment1 ""
Comment2 ""
Comment3 ""
Comment4 ""
$EndDescr
$Comp
L UMZ1NTR:UMZ1NTR U1
U 1 1 5F872FBD
P 3600 2000
F 0 "U1" H 4650 2387 60  0000 C CNN
F 1 "UMZ1NTR" H 4650 2281 60  0000 C CNN
F 2 "UMZ1NTR:SOP65P210X100-6N" H 4650 2240 60  0001 C CNN
F 3 "" H 3600 2000 60  0000 C CNN
	1    3600 2000
	1    0    0    -1  
$EndComp
$Comp
L UMZ1NTR:UMZ1NTR U2
U 1 1 5F873C59
P 3600 2950
F 0 "U2" H 4650 3337 60  0000 C CNN
F 1 "UMZ1NTR" H 4650 3231 60  0000 C CNN
F 2 "UMZ1NTR:SOP65P210X100-6N" H 4650 3190 60  0001 C CNN
F 3 "" H 3600 2950 60  0000 C CNN
	1    3600 2950
	1    0    0    -1  
$EndComp
$Comp
L UMZ1NTR:UMZ1NTR U3
U 1 1 5F874281
P 3600 3850
F 0 "U3" H 4650 4237 60  0000 C CNN
F 1 "UMZ1NTR" H 4650 4131 60  0000 C CNN
F 2 "UMZ1NTR:SOP65P210X100-6N" H 4650 4090 60  0001 C CNN
F 3 "" H 3600 3850 60  0000 C CNN
	1    3600 3850
	1    0    0    -1  
$EndComp
$Comp
L UMZ1NTR:UMZ1NTR U4
U 1 1 5F8746C3
P 3600 4750
F 0 "U4" H 4650 5137 60  0000 C CNN
F 1 "UMZ1NTR" H 4650 5031 60  0000 C CNN
F 2 "UMZ1NTR:SOP65P210X100-6N" H 4650 4990 60  0001 C CNN
F 3 "" H 3600 4750 60  0000 C CNN
	1    3600 4750
	1    0    0    -1  
$EndComp
$Comp
L Connector_Generic:Conn_01x12 J2
U 1 1 5F8754C2
P 7500 3150
F 0 "J2" H 7580 3142 50  0000 L CNN
F 1 "Conn_01x12" H 7580 3051 50  0000 L CNN
F 2 "Connector_PinHeader_2.54mm:PinHeader_1x12_P2.54mm_Vertical" H 7500 3150 50  0001 C CNN
F 3 "~" H 7500 3150 50  0001 C CNN
	1    7500 3150
	1    0    0    -1  
$EndComp
$Comp
L Connector_Generic:Conn_01x12 J1
U 1 1 5F877985
P 2050 3150
F 0 "J1" H 1968 3867 50  0000 C CNN
F 1 "Conn_01x12" H 1968 3776 50  0000 C CNN
F 2 "Connector_PinHeader_2.54mm:PinHeader_1x12_P2.54mm_Vertical" H 2050 3150 50  0001 C CNN
F 3 "~" H 2050 3150 50  0001 C CNN
	1    2050 3150
	-1   0    0    -1  
$EndComp
Wire Wire Line
	2250 2650 2250 2000
Wire Wire Line
	2250 2000 3600 2000
Wire Wire Line
	2350 2100 3600 2100
Wire Wire Line
	2450 2200 3600 2200
Wire Wire Line
	2250 3750 2250 4950
Wire Wire Line
	2250 4950 3600 4950
Wire Wire Line
	2350 4850 3600 4850
Wire Wire Line
	2450 4750 3600 4750
Wire Wire Line
	2550 4050 3600 4050
Wire Wire Line
	2650 3950 3600 3950
Wire Wire Line
	2750 3850 3600 3850
Wire Wire Line
	2250 3650 2350 3650
Wire Wire Line
	2350 3650 2350 4850
Wire Wire Line
	2250 3550 2450 3550
Wire Wire Line
	2450 3550 2450 4750
Wire Wire Line
	2250 3450 2550 3450
Wire Wire Line
	2550 3450 2550 4050
Wire Wire Line
	2250 3350 2650 3350
Wire Wire Line
	2650 3350 2650 3950
Wire Wire Line
	2250 3250 2750 3250
Wire Wire Line
	2750 3250 2750 3850
Wire Wire Line
	2250 3150 3600 3150
Wire Wire Line
	2250 3050 3600 3050
Wire Wire Line
	2250 2950 3600 2950
Wire Wire Line
	2250 2850 2450 2850
Wire Wire Line
	2450 2850 2450 2200
Wire Wire Line
	2250 2750 2350 2750
Wire Wire Line
	2350 2750 2350 2100
Wire Wire Line
	7300 3750 7300 4950
Wire Wire Line
	7300 4950 5700 4950
Wire Wire Line
	7300 3650 7200 3650
Wire Wire Line
	7200 3650 7200 4850
Wire Wire Line
	7200 4850 5700 4850
Wire Wire Line
	7300 3550 7100 3550
Wire Wire Line
	7100 3550 7100 4750
Wire Wire Line
	7100 4750 5700 4750
Wire Wire Line
	7300 3450 7000 3450
Wire Wire Line
	7000 3450 7000 4050
Wire Wire Line
	7000 4050 5700 4050
Wire Wire Line
	7300 3350 6900 3350
Wire Wire Line
	6900 3350 6900 3950
Wire Wire Line
	6900 3950 5700 3950
Wire Wire Line
	7300 3250 6800 3250
Wire Wire Line
	6800 3250 6800 3850
Wire Wire Line
	6800 3850 5700 3850
Wire Wire Line
	7300 3150 5700 3150
Wire Wire Line
	7300 3050 5700 3050
Wire Wire Line
	7300 2950 5700 2950
Wire Wire Line
	7300 2650 7300 2000
Wire Wire Line
	7300 2000 5700 2000
Wire Wire Line
	7300 2750 7200 2750
Wire Wire Line
	7200 2750 7200 2100
Wire Wire Line
	7200 2100 5700 2100
Wire Wire Line
	7300 2850 7100 2850
Wire Wire Line
	7100 2850 7100 2200
Wire Wire Line
	7100 2200 5700 2200
$EndSCHEMATC
