(export (version D)
  (design
    (source "D:\\Projects\\_electronics\\bottle_lights\\UMZ1N adapter\\UMZ1N adapter.sch")
    (date "9/24/2020 6:09:41 PM")
    (tool "Eeschema (5.1.6)-1")
    (sheet (number 1) (name /) (tstamps /)
      (title_block
        (title)
        (company)
        (rev)
        (date)
        (source "UMZ1N adapter.sch")
        (comment (number 1) (value ""))
        (comment (number 2) (value ""))
        (comment (number 3) (value ""))
        (comment (number 4) (value "")))))
  (components
    (comp (ref U1)
      (value UMZ1NTR)
      (footprint UMZ1NTR:SOP65P210X100-6N)
      (libsource (lib UMZ1NTR) (part UMZ1NTR) (description "NPN/PNP transistor pair"))
      (sheetpath (names /) (tstamps /))
      (tstamp 5F872FBD))
    (comp (ref U2)
      (value UMZ1NTR)
      (footprint UMZ1NTR:SOP65P210X100-6N)
      (libsource (lib UMZ1NTR) (part UMZ1NTR) (description "NPN/PNP transistor pair"))
      (sheetpath (names /) (tstamps /))
      (tstamp 5F873C59))
    (comp (ref U3)
      (value UMZ1NTR)
      (footprint UMZ1NTR:SOP65P210X100-6N)
      (libsource (lib UMZ1NTR) (part UMZ1NTR) (description "NPN/PNP transistor pair"))
      (sheetpath (names /) (tstamps /))
      (tstamp 5F874281))
    (comp (ref U4)
      (value UMZ1NTR)
      (footprint UMZ1NTR:SOP65P210X100-6N)
      (libsource (lib UMZ1NTR) (part UMZ1NTR) (description "NPN/PNP transistor pair"))
      (sheetpath (names /) (tstamps /))
      (tstamp 5F8746C3))
    (comp (ref J2)
      (value Conn_01x12)
      (footprint Connector_PinHeader_2.54mm:PinHeader_1x12_P2.54mm_Vertical)
      (datasheet ~)
      (libsource (lib Connector_Generic) (part Conn_01x12) (description "Generic connector, single row, 01x12, script generated (kicad-library-utils/schlib/autogen/connector/)"))
      (sheetpath (names /) (tstamps /))
      (tstamp 5F8754C2))
    (comp (ref J1)
      (value Conn_01x12)
      (footprint Connector_PinHeader_2.54mm:PinHeader_1x12_P2.54mm_Vertical)
      (datasheet ~)
      (libsource (lib Connector_Generic) (part Conn_01x12) (description "Generic connector, single row, 01x12, script generated (kicad-library-utils/schlib/autogen/connector/)"))
      (sheetpath (names /) (tstamps /))
      (tstamp 5F877985)))
  (libparts
    (libpart (lib Connector_Generic) (part Conn_01x12)
      (description "Generic connector, single row, 01x12, script generated (kicad-library-utils/schlib/autogen/connector/)")
      (docs ~)
      (footprints
        (fp Connector*:*_1x??_*))
      (fields
        (field (name Reference) J)
        (field (name Value) Conn_01x12))
      (pins
        (pin (num 1) (name Pin_1) (type passive))
        (pin (num 2) (name Pin_2) (type passive))
        (pin (num 3) (name Pin_3) (type passive))
        (pin (num 4) (name Pin_4) (type passive))
        (pin (num 5) (name Pin_5) (type passive))
        (pin (num 6) (name Pin_6) (type passive))
        (pin (num 7) (name Pin_7) (type passive))
        (pin (num 8) (name Pin_8) (type passive))
        (pin (num 9) (name Pin_9) (type passive))
        (pin (num 10) (name Pin_10) (type passive))
        (pin (num 11) (name Pin_11) (type passive))
        (pin (num 12) (name Pin_12) (type passive))))
    (libpart (lib UMZ1NTR) (part UMZ1NTR)
      (aliases
        (alias UMZ1NT1G))
      (description "NPN/PNP transistor pair")
      (footprints
        (fp TRANS_UM6J1_ROM)
        (fp TRANS_UM6J1_ROM-M)
        (fp TRANS_UM6J1_ROM-L))
      (fields
        (field (name Reference) U)
        (field (name Value) UMZ1NTR)
        (field (name Footprint) UMZ1NTR:SOP65P210X100-6N))
      (pins
        (pin (num 1) (name 1_NPN_Emitter) (type unspc))
        (pin (num 2) (name 2_NPN_Base) (type unspc))
        (pin (num 3) (name 3_PNP_Collector) (type unspc))
        (pin (num 4) (name PNP_Emitter_4) (type unspc))
        (pin (num 5) (name PNP_Base_5) (type unspc))
        (pin (num 6) (name NPN_Collector_6) (type unspc)))))
  (libraries
    (library (logical Connector_Generic)
      (uri D:\apps\KiCad\share\kicad\library/Connector_Generic.lib))
    (library (logical UMZ1NTR)
      (uri "D:/Projects/_electronics/KiCad/My Symbols/UMZ1NTR.lib")))
  (nets
    (net (code 1) (name "Net-(J1-Pad8)")
      (node (ref J1) (pin 8))
      (node (ref U3) (pin 2)))
    (net (code 2) (name "Net-(J2-Pad12)")
      (node (ref J2) (pin 12))
      (node (ref U4) (pin 4)))
    (net (code 3) (name "Net-(J1-Pad4)")
      (node (ref J1) (pin 4))
      (node (ref U2) (pin 1)))
    (net (code 4) (name "Net-(J1-Pad5)")
      (node (ref J1) (pin 5))
      (node (ref U2) (pin 2)))
    (net (code 5) (name "Net-(J1-Pad6)")
      (node (ref J1) (pin 6))
      (node (ref U2) (pin 3)))
    (net (code 6) (name "Net-(J1-Pad7)")
      (node (ref J1) (pin 7))
      (node (ref U3) (pin 1)))
    (net (code 7) (name "Net-(J1-Pad9)")
      (node (ref J1) (pin 9))
      (node (ref U3) (pin 3)))
    (net (code 8) (name "Net-(J1-Pad10)")
      (node (ref J1) (pin 10))
      (node (ref U4) (pin 1)))
    (net (code 9) (name "Net-(J1-Pad11)")
      (node (ref U4) (pin 2))
      (node (ref J1) (pin 11)))
    (net (code 10) (name "Net-(J1-Pad12)")
      (node (ref U4) (pin 3))
      (node (ref J1) (pin 12)))
    (net (code 11) (name "Net-(J2-Pad7)")
      (node (ref U3) (pin 6))
      (node (ref J2) (pin 7)))
    (net (code 12) (name "Net-(J2-Pad3)")
      (node (ref U1) (pin 4))
      (node (ref J2) (pin 3)))
    (net (code 13) (name "Net-(J2-Pad2)")
      (node (ref U1) (pin 5))
      (node (ref J2) (pin 2)))
    (net (code 14) (name "Net-(J2-Pad1)")
      (node (ref U1) (pin 6))
      (node (ref J2) (pin 1)))
    (net (code 15) (name "Net-(J2-Pad4)")
      (node (ref J2) (pin 4))
      (node (ref U2) (pin 6)))
    (net (code 16) (name "Net-(J2-Pad5)")
      (node (ref J2) (pin 5))
      (node (ref U2) (pin 5)))
    (net (code 17) (name "Net-(J2-Pad6)")
      (node (ref U2) (pin 4))
      (node (ref J2) (pin 6)))
    (net (code 18) (name "Net-(J2-Pad8)")
      (node (ref J2) (pin 8))
      (node (ref U3) (pin 5)))
    (net (code 19) (name "Net-(J2-Pad9)")
      (node (ref J2) (pin 9))
      (node (ref U3) (pin 4)))
    (net (code 20) (name "Net-(J2-Pad10)")
      (node (ref U4) (pin 6))
      (node (ref J2) (pin 10)))
    (net (code 21) (name "Net-(J2-Pad11)")
      (node (ref U4) (pin 5))
      (node (ref J2) (pin 11)))
    (net (code 22) (name "Net-(J1-Pad3)")
      (node (ref J1) (pin 3))
      (node (ref U1) (pin 3)))
    (net (code 23) (name "Net-(J1-Pad2)")
      (node (ref J1) (pin 2))
      (node (ref U1) (pin 2)))
    (net (code 24) (name "Net-(J1-Pad1)")
      (node (ref J1) (pin 1))
      (node (ref U1) (pin 1)))))