%FSLAX45Y45*%
G04 Gerber Fmt 4.5, Leading zero omitted, Abs format (unit mm)*
G04 Created by KiCad (PCBNEW (5.1.6)-1) date 2020-09-21 20:08:57*
%MOMM*%
%LPD*%
G01*
G04 APERTURE LIST*
%TA.AperFunction,Profile*%
%ADD10C,0.050000*%
%TD*%
%ADD11C,0.200000*%
%ADD12C,0.300000*%
G04 APERTURE END LIST*
D10*
X7975600Y-5334000D02*
G75*
G02*
X7899400Y-5410200I-76200J0D01*
G01*
X6858000Y-5410200D02*
G75*
G02*
X6781800Y-5334000I0J76200D01*
G01*
X6781800Y-2260600D02*
G75*
G02*
X6858000Y-2184400I76200J0D01*
G01*
X7899400Y-2184400D02*
G75*
G02*
X7975600Y-2260600I0J-76200D01*
G01*
X6781800Y-5334000D02*
X6781800Y-2260600D01*
X7899400Y-5410200D02*
X6858000Y-5410200D01*
X7975600Y-2260600D02*
X7975600Y-5334000D01*
X6858000Y-2184400D02*
X7899400Y-2184400D01*
D11*
X7712000Y-2350000D02*
X7812000Y-2450000D01*
X7812000Y-2350000D02*
X7712000Y-2450000D01*
X7712000Y-2604000D02*
X7812000Y-2704000D01*
X7812000Y-2604000D02*
X7712000Y-2704000D01*
X7712000Y-2858000D02*
X7812000Y-2958000D01*
X7812000Y-2858000D02*
X7712000Y-2958000D01*
X7712000Y-3112000D02*
X7812000Y-3212000D01*
X7812000Y-3112000D02*
X7712000Y-3212000D01*
X7712000Y-3366000D02*
X7812000Y-3466000D01*
X7812000Y-3366000D02*
X7712000Y-3466000D01*
X7712000Y-3620000D02*
X7812000Y-3720000D01*
X7812000Y-3620000D02*
X7712000Y-3720000D01*
X7712000Y-3874000D02*
X7812000Y-3974000D01*
X7812000Y-3874000D02*
X7712000Y-3974000D01*
X7712000Y-4128000D02*
X7812000Y-4228000D01*
X7812000Y-4128000D02*
X7712000Y-4228000D01*
X7712000Y-4382000D02*
X7812000Y-4482000D01*
X7812000Y-4382000D02*
X7712000Y-4482000D01*
X7712000Y-4636000D02*
X7812000Y-4736000D01*
X7812000Y-4636000D02*
X7712000Y-4736000D01*
X7712000Y-4890000D02*
X7812000Y-4990000D01*
X7812000Y-4890000D02*
X7712000Y-4990000D01*
X7712000Y-5144000D02*
X7812000Y-5244000D01*
X7812000Y-5144000D02*
X7712000Y-5244000D01*
X6950000Y-2350000D02*
X7050000Y-2450000D01*
X7050000Y-2350000D02*
X6950000Y-2450000D01*
X6950000Y-2604000D02*
X7050000Y-2704000D01*
X7050000Y-2604000D02*
X6950000Y-2704000D01*
X6950000Y-2858000D02*
X7050000Y-2958000D01*
X7050000Y-2858000D02*
X6950000Y-2958000D01*
X6950000Y-3112000D02*
X7050000Y-3212000D01*
X7050000Y-3112000D02*
X6950000Y-3212000D01*
X6950000Y-3366000D02*
X7050000Y-3466000D01*
X7050000Y-3366000D02*
X6950000Y-3466000D01*
X6950000Y-3620000D02*
X7050000Y-3720000D01*
X7050000Y-3620000D02*
X6950000Y-3720000D01*
X6950000Y-3874000D02*
X7050000Y-3974000D01*
X7050000Y-3874000D02*
X6950000Y-3974000D01*
X6950000Y-4128000D02*
X7050000Y-4228000D01*
X7050000Y-4128000D02*
X6950000Y-4228000D01*
X6950000Y-4382000D02*
X7050000Y-4482000D01*
X7050000Y-4382000D02*
X6950000Y-4482000D01*
X6950000Y-4636000D02*
X7050000Y-4736000D01*
X7050000Y-4636000D02*
X6950000Y-4736000D01*
X6950000Y-4890000D02*
X7050000Y-4990000D01*
X7050000Y-4890000D02*
X6950000Y-4990000D01*
X6950000Y-5144000D02*
X7050000Y-5244000D01*
X7050000Y-5144000D02*
X6950000Y-5244000D01*
D12*
X7065728Y-5878414D02*
X7065728Y-5578414D01*
X7137157Y-5578414D01*
X7180014Y-5592700D01*
X7208586Y-5621271D01*
X7222871Y-5649843D01*
X7237157Y-5706986D01*
X7237157Y-5749843D01*
X7222871Y-5806986D01*
X7208586Y-5835557D01*
X7180014Y-5864129D01*
X7137157Y-5878414D01*
X7065728Y-5878414D01*
X7365728Y-5878414D02*
X7365728Y-5678414D01*
X7365728Y-5735557D02*
X7380014Y-5706986D01*
X7394300Y-5692700D01*
X7422871Y-5678414D01*
X7451443Y-5678414D01*
X7551443Y-5878414D02*
X7551443Y-5678414D01*
X7551443Y-5578414D02*
X7537157Y-5592700D01*
X7551443Y-5606986D01*
X7565728Y-5592700D01*
X7551443Y-5578414D01*
X7551443Y-5606986D01*
X7737157Y-5878414D02*
X7708586Y-5864129D01*
X7694300Y-5835557D01*
X7694300Y-5578414D01*
X7894300Y-5878414D02*
X7865728Y-5864129D01*
X7851443Y-5835557D01*
X7851443Y-5578414D01*
X8237157Y-5878414D02*
X8237157Y-5578414D01*
X8337157Y-5792700D01*
X8437157Y-5578414D01*
X8437157Y-5878414D01*
X8708586Y-5878414D02*
X8708586Y-5721271D01*
X8694300Y-5692700D01*
X8665728Y-5678414D01*
X8608586Y-5678414D01*
X8580014Y-5692700D01*
X8708586Y-5864129D02*
X8680014Y-5878414D01*
X8608586Y-5878414D01*
X8580014Y-5864129D01*
X8565728Y-5835557D01*
X8565728Y-5806986D01*
X8580014Y-5778414D01*
X8608586Y-5764129D01*
X8680014Y-5764129D01*
X8708586Y-5749843D01*
X8851443Y-5678414D02*
X8851443Y-5978414D01*
X8851443Y-5692700D02*
X8880014Y-5678414D01*
X8937157Y-5678414D01*
X8965728Y-5692700D01*
X8980014Y-5706986D01*
X8994300Y-5735557D01*
X8994300Y-5821271D01*
X8980014Y-5849843D01*
X8965728Y-5864129D01*
X8937157Y-5878414D01*
X8880014Y-5878414D01*
X8851443Y-5864129D01*
X9122871Y-5849843D02*
X9137157Y-5864129D01*
X9122871Y-5878414D01*
X9108586Y-5864129D01*
X9122871Y-5849843D01*
X9122871Y-5878414D01*
X9122871Y-5692700D02*
X9137157Y-5706986D01*
X9122871Y-5721271D01*
X9108586Y-5706986D01*
X9122871Y-5692700D01*
X9122871Y-5721271D01*
X6679300Y-6322700D02*
X6779300Y-6422700D01*
X6779300Y-6322700D02*
X6679300Y-6422700D01*
X7222871Y-6508414D02*
X7051443Y-6508414D01*
X7137157Y-6508414D02*
X7137157Y-6208414D01*
X7108586Y-6251271D01*
X7080014Y-6279843D01*
X7051443Y-6294129D01*
X7351443Y-6479843D02*
X7365728Y-6494129D01*
X7351443Y-6508414D01*
X7337157Y-6494129D01*
X7351443Y-6479843D01*
X7351443Y-6508414D01*
X7551443Y-6208414D02*
X7580014Y-6208414D01*
X7608586Y-6222700D01*
X7622871Y-6236986D01*
X7637157Y-6265557D01*
X7651443Y-6322700D01*
X7651443Y-6394129D01*
X7637157Y-6451271D01*
X7622871Y-6479843D01*
X7608586Y-6494129D01*
X7580014Y-6508414D01*
X7551443Y-6508414D01*
X7522871Y-6494129D01*
X7508586Y-6479843D01*
X7494300Y-6451271D01*
X7480014Y-6394129D01*
X7480014Y-6322700D01*
X7494300Y-6265557D01*
X7508586Y-6236986D01*
X7522871Y-6222700D01*
X7551443Y-6208414D01*
X7837157Y-6208414D02*
X7865728Y-6208414D01*
X7894300Y-6222700D01*
X7908586Y-6236986D01*
X7922871Y-6265557D01*
X7937157Y-6322700D01*
X7937157Y-6394129D01*
X7922871Y-6451271D01*
X7908586Y-6479843D01*
X7894300Y-6494129D01*
X7865728Y-6508414D01*
X7837157Y-6508414D01*
X7808586Y-6494129D01*
X7794300Y-6479843D01*
X7780014Y-6451271D01*
X7765728Y-6394129D01*
X7765728Y-6322700D01*
X7780014Y-6265557D01*
X7794300Y-6236986D01*
X7808586Y-6222700D01*
X7837157Y-6208414D01*
X8065728Y-6508414D02*
X8065728Y-6308414D01*
X8065728Y-6336986D02*
X8080014Y-6322700D01*
X8108586Y-6308414D01*
X8151443Y-6308414D01*
X8180014Y-6322700D01*
X8194300Y-6351271D01*
X8194300Y-6508414D01*
X8194300Y-6351271D02*
X8208586Y-6322700D01*
X8237157Y-6308414D01*
X8280014Y-6308414D01*
X8308586Y-6322700D01*
X8322871Y-6351271D01*
X8322871Y-6508414D01*
X8465728Y-6508414D02*
X8465728Y-6308414D01*
X8465728Y-6336986D02*
X8480014Y-6322700D01*
X8508586Y-6308414D01*
X8551443Y-6308414D01*
X8580014Y-6322700D01*
X8594300Y-6351271D01*
X8594300Y-6508414D01*
X8594300Y-6351271D02*
X8608586Y-6322700D01*
X8637157Y-6308414D01*
X8680014Y-6308414D01*
X8708586Y-6322700D01*
X8722871Y-6351271D01*
X8722871Y-6508414D01*
X9308586Y-6194129D02*
X9051443Y-6579843D01*
X9694300Y-6208414D02*
X9722871Y-6208414D01*
X9751443Y-6222700D01*
X9765728Y-6236986D01*
X9780014Y-6265557D01*
X9794300Y-6322700D01*
X9794300Y-6394129D01*
X9780014Y-6451271D01*
X9765728Y-6479843D01*
X9751443Y-6494129D01*
X9722871Y-6508414D01*
X9694300Y-6508414D01*
X9665728Y-6494129D01*
X9651443Y-6479843D01*
X9637157Y-6451271D01*
X9622871Y-6394129D01*
X9622871Y-6322700D01*
X9637157Y-6265557D01*
X9651443Y-6236986D01*
X9665728Y-6222700D01*
X9694300Y-6208414D01*
X9922871Y-6479843D02*
X9937157Y-6494129D01*
X9922871Y-6508414D01*
X9908586Y-6494129D01*
X9922871Y-6479843D01*
X9922871Y-6508414D01*
X10122871Y-6208414D02*
X10151443Y-6208414D01*
X10180014Y-6222700D01*
X10194300Y-6236986D01*
X10208586Y-6265557D01*
X10222871Y-6322700D01*
X10222871Y-6394129D01*
X10208586Y-6451271D01*
X10194300Y-6479843D01*
X10180014Y-6494129D01*
X10151443Y-6508414D01*
X10122871Y-6508414D01*
X10094300Y-6494129D01*
X10080014Y-6479843D01*
X10065728Y-6451271D01*
X10051443Y-6394129D01*
X10051443Y-6322700D01*
X10065728Y-6265557D01*
X10080014Y-6236986D01*
X10094300Y-6222700D01*
X10122871Y-6208414D01*
X10322871Y-6208414D02*
X10508586Y-6208414D01*
X10408586Y-6322700D01*
X10451443Y-6322700D01*
X10480014Y-6336986D01*
X10494300Y-6351271D01*
X10508586Y-6379843D01*
X10508586Y-6451271D01*
X10494300Y-6479843D01*
X10480014Y-6494129D01*
X10451443Y-6508414D01*
X10365728Y-6508414D01*
X10337157Y-6494129D01*
X10322871Y-6479843D01*
X10651443Y-6508414D02*
X10708586Y-6508414D01*
X10737157Y-6494129D01*
X10751443Y-6479843D01*
X10780014Y-6436986D01*
X10794300Y-6379843D01*
X10794300Y-6265557D01*
X10780014Y-6236986D01*
X10765728Y-6222700D01*
X10737157Y-6208414D01*
X10680014Y-6208414D01*
X10651443Y-6222700D01*
X10637157Y-6236986D01*
X10622871Y-6265557D01*
X10622871Y-6336986D01*
X10637157Y-6365557D01*
X10651443Y-6379843D01*
X10680014Y-6394129D01*
X10737157Y-6394129D01*
X10765728Y-6379843D01*
X10780014Y-6365557D01*
X10794300Y-6336986D01*
X10908586Y-6208414D02*
X10908586Y-6265557D01*
X11022871Y-6208414D02*
X11022871Y-6265557D01*
X11465728Y-6622700D02*
X11451443Y-6608414D01*
X11422871Y-6565557D01*
X11408586Y-6536986D01*
X11394300Y-6494129D01*
X11380014Y-6422700D01*
X11380014Y-6365557D01*
X11394300Y-6294129D01*
X11408586Y-6251271D01*
X11422871Y-6222700D01*
X11451443Y-6179843D01*
X11465728Y-6165557D01*
X11565728Y-6236986D02*
X11580014Y-6222700D01*
X11608586Y-6208414D01*
X11680014Y-6208414D01*
X11708586Y-6222700D01*
X11722871Y-6236986D01*
X11737157Y-6265557D01*
X11737157Y-6294129D01*
X11722871Y-6336986D01*
X11551443Y-6508414D01*
X11737157Y-6508414D01*
X11994300Y-6308414D02*
X11994300Y-6508414D01*
X11922871Y-6194129D02*
X11851443Y-6408414D01*
X12037157Y-6408414D01*
X12380014Y-6508414D02*
X12380014Y-6208414D01*
X12508586Y-6508414D02*
X12508586Y-6351271D01*
X12494300Y-6322700D01*
X12465728Y-6308414D01*
X12422871Y-6308414D01*
X12394300Y-6322700D01*
X12380014Y-6336986D01*
X12694300Y-6508414D02*
X12665728Y-6494129D01*
X12651443Y-6479843D01*
X12637157Y-6451271D01*
X12637157Y-6365557D01*
X12651443Y-6336986D01*
X12665728Y-6322700D01*
X12694300Y-6308414D01*
X12737157Y-6308414D01*
X12765728Y-6322700D01*
X12780014Y-6336986D01*
X12794300Y-6365557D01*
X12794300Y-6451271D01*
X12780014Y-6479843D01*
X12765728Y-6494129D01*
X12737157Y-6508414D01*
X12694300Y-6508414D01*
X12965728Y-6508414D02*
X12937157Y-6494129D01*
X12922871Y-6465557D01*
X12922871Y-6208414D01*
X13194300Y-6494129D02*
X13165728Y-6508414D01*
X13108586Y-6508414D01*
X13080014Y-6494129D01*
X13065728Y-6465557D01*
X13065728Y-6351271D01*
X13080014Y-6322700D01*
X13108586Y-6308414D01*
X13165728Y-6308414D01*
X13194300Y-6322700D01*
X13208586Y-6351271D01*
X13208586Y-6379843D01*
X13065728Y-6408414D01*
X13322871Y-6494129D02*
X13351443Y-6508414D01*
X13408586Y-6508414D01*
X13437157Y-6494129D01*
X13451443Y-6465557D01*
X13451443Y-6451271D01*
X13437157Y-6422700D01*
X13408586Y-6408414D01*
X13365728Y-6408414D01*
X13337157Y-6394129D01*
X13322871Y-6365557D01*
X13322871Y-6351271D01*
X13337157Y-6322700D01*
X13365728Y-6308414D01*
X13408586Y-6308414D01*
X13437157Y-6322700D01*
X13551443Y-6622700D02*
X13565728Y-6608414D01*
X13594300Y-6565557D01*
X13608586Y-6536986D01*
X13622871Y-6494129D01*
X13637157Y-6422700D01*
X13637157Y-6365557D01*
X13622871Y-6294129D01*
X13608586Y-6251271D01*
X13594300Y-6222700D01*
X13565728Y-6179843D01*
X13551443Y-6165557D01*
M02*
