(kicad_pcb (version 20171130) (host pcbnew "(5.1.6)-1")

  (general
    (thickness 1.6)
    (drawings 21)
    (tracks 246)
    (zones 0)
    (modules 28)
    (nets 27)
  )

  (page A4)
  (layers
    (0 F.Cu signal)
    (31 B.Cu signal)
    (32 B.Adhes user hide)
    (33 F.Adhes user hide)
    (34 B.Paste user hide)
    (35 F.Paste user hide)
    (36 B.SilkS user)
    (37 F.SilkS user hide)
    (38 B.Mask user)
    (39 F.Mask user hide)
    (40 Dwgs.User user)
    (41 Cmts.User user hide)
    (42 Eco1.User user hide)
    (43 Eco2.User user hide)
    (44 Edge.Cuts user)
    (45 Margin user)
    (46 B.CrtYd user)
    (47 F.CrtYd user hide)
    (48 B.Fab user hide)
    (49 F.Fab user hide)
  )

  (setup
    (last_trace_width 0.2)
    (user_trace_width 0.2)
    (user_trace_width 0.25)
    (user_trace_width 0.3)
    (user_trace_width 0.4)
    (user_trace_width 0.5)
    (user_trace_width 0.6)
    (user_trace_width 0.7)
    (user_trace_width 0.75)
    (user_trace_width 0.8)
    (user_trace_width 0.9)
    (user_trace_width 1)
    (trace_clearance 0.2)
    (zone_clearance 0.508)
    (zone_45_only no)
    (trace_min 0.2)
    (via_size 0.8)
    (via_drill 0.4)
    (via_min_size 0.4)
    (via_min_drill 0.3)
    (user_via 0.6 0.3)
    (user_via 0.9 0.6)
    (uvia_size 0.3)
    (uvia_drill 0.1)
    (uvias_allowed no)
    (uvia_min_size 0.2)
    (uvia_min_drill 0.1)
    (edge_width 0.05)
    (segment_width 0.2)
    (pcb_text_width 0.3)
    (pcb_text_size 1.5 1.5)
    (mod_edge_width 0.12)
    (mod_text_size 1 1)
    (mod_text_width 0.15)
    (pad_size 1.5 1.5)
    (pad_drill 0)
    (pad_to_mask_clearance 0.05)
    (aux_axis_origin 0 0)
    (visible_elements 7FFFFFFF)
    (pcbplotparams
      (layerselection 0x010fc_ffffffff)
      (usegerberextensions false)
      (usegerberattributes true)
      (usegerberadvancedattributes true)
      (creategerberjobfile true)
      (excludeedgelayer true)
      (linewidth 0.100000)
      (plotframeref false)
      (viasonmask false)
      (mode 1)
      (useauxorigin false)
      (hpglpennumber 1)
      (hpglpenspeed 20)
      (hpglpendiameter 15.000000)
      (psnegative false)
      (psa4output false)
      (plotreference true)
      (plotvalue true)
      (plotinvisibletext false)
      (padsonsilk false)
      (subtractmaskfromsilk false)
      (outputformat 1)
      (mirror false)
      (drillshape 1)
      (scaleselection 1)
      (outputdirectory ""))
  )

  (net 0 "")
  (net 1 VCC)
  (net 2 GND)
  (net 3 /pin5)
  (net 4 /pin8)
  (net 5 /pin9)
  (net 6 /pin7)
  (net 7 /pin6)
  (net 8 "Net-(TP1-Pad1)")
  (net 9 "Net-(TP4-Pad1)")
  (net 10 "Net-(TP5-Pad1)")
  (net 11 "Net-(R1-Pad1)")
  (net 12 "Net-(R2-Pad1)")
  (net 13 "Net-(R3-Pad1)")
  (net 14 "Net-(R4-Pad1)")
  (net 15 "Net-(R5-Pad2)")
  (net 16 "Net-(R5-Pad1)")
  (net 17 "Net-(R6-Pad2)")
  (net 18 "Net-(R6-Pad1)")
  (net 19 "Net-(R7-Pad2)")
  (net 20 "Net-(R7-Pad1)")
  (net 21 "Net-(R8-Pad2)")
  (net 22 "Net-(R8-Pad1)")
  (net 23 "Net-(R9-Pad2)")
  (net 24 "Net-(R10-Pad2)")
  (net 25 "Net-(R11-Pad2)")
  (net 26 "Net-(R12-Pad2)")

  (net_class Default "This is the default net class."
    (clearance 0.2)
    (trace_width 0.25)
    (via_dia 0.8)
    (via_drill 0.4)
    (uvia_dia 0.3)
    (uvia_drill 0.1)
    (add_net /pin5)
    (add_net /pin6)
    (add_net /pin7)
    (add_net /pin8)
    (add_net /pin9)
    (add_net GND)
    (add_net "Net-(R1-Pad1)")
    (add_net "Net-(R10-Pad2)")
    (add_net "Net-(R11-Pad2)")
    (add_net "Net-(R12-Pad2)")
    (add_net "Net-(R2-Pad1)")
    (add_net "Net-(R3-Pad1)")
    (add_net "Net-(R4-Pad1)")
    (add_net "Net-(R5-Pad1)")
    (add_net "Net-(R5-Pad2)")
    (add_net "Net-(R6-Pad1)")
    (add_net "Net-(R6-Pad2)")
    (add_net "Net-(R7-Pad1)")
    (add_net "Net-(R7-Pad2)")
    (add_net "Net-(R8-Pad1)")
    (add_net "Net-(R8-Pad2)")
    (add_net "Net-(R9-Pad2)")
    (add_net "Net-(TP1-Pad1)")
    (add_net "Net-(TP4-Pad1)")
    (add_net "Net-(TP5-Pad1)")
    (add_net VCC)
  )

  (module Resistor_SMD:R_0603_1608Metric (layer B.Cu) (tedit 5B301BBD) (tstamp 5F744E4C)
    (at 58 52.8 90)
    (descr "Resistor SMD 0603 (1608 Metric), square (rectangular) end terminal, IPC_7351 nominal, (Body size source: http://www.tortai-tech.com/upload/download/2011102023233369053.pdf), generated with kicad-footprint-generator")
    (tags resistor)
    (path /5F79142B)
    (attr smd)
    (fp_text reference R12 (at 0 1.43 90) (layer F.Fab) hide
      (effects (font (size 1 1) (thickness 0.15)) (justify mirror))
    )
    (fp_text value 100R (at 0 -1.43 90) (layer B.Fab)
      (effects (font (size 1 1) (thickness 0.15)) (justify mirror))
    )
    (fp_line (start 1.48 -0.73) (end -1.48 -0.73) (layer B.CrtYd) (width 0.05))
    (fp_line (start 1.48 0.73) (end 1.48 -0.73) (layer B.CrtYd) (width 0.05))
    (fp_line (start -1.48 0.73) (end 1.48 0.73) (layer B.CrtYd) (width 0.05))
    (fp_line (start -1.48 -0.73) (end -1.48 0.73) (layer B.CrtYd) (width 0.05))
    (fp_line (start -0.162779 -0.51) (end 0.162779 -0.51) (layer B.SilkS) (width 0.12))
    (fp_line (start -0.162779 0.51) (end 0.162779 0.51) (layer B.SilkS) (width 0.12))
    (fp_line (start 0.8 -0.4) (end -0.8 -0.4) (layer B.Fab) (width 0.1))
    (fp_line (start 0.8 0.4) (end 0.8 -0.4) (layer B.Fab) (width 0.1))
    (fp_line (start -0.8 0.4) (end 0.8 0.4) (layer B.Fab) (width 0.1))
    (fp_line (start -0.8 -0.4) (end -0.8 0.4) (layer B.Fab) (width 0.1))
    (fp_text user %R (at 0 0 90) (layer B.Fab)
      (effects (font (size 0.4 0.4) (thickness 0.06)) (justify mirror))
    )
    (pad 2 smd roundrect (at 0.7875 0 90) (size 0.875 0.95) (layers B.Cu B.Paste B.Mask) (roundrect_rratio 0.25)
      (net 26 "Net-(R12-Pad2)"))
    (pad 1 smd roundrect (at -0.7875 0 90) (size 0.875 0.95) (layers B.Cu B.Paste B.Mask) (roundrect_rratio 0.25)
      (net 3 /pin5))
    (model ${KISYS3DMOD}/Resistor_SMD.3dshapes/R_0603_1608Metric.wrl
      (at (xyz 0 0 0))
      (scale (xyz 1 1 1))
      (rotate (xyz 0 0 0))
    )
  )

  (module Resistor_SMD:R_0603_1608Metric (layer B.Cu) (tedit 5B301BBD) (tstamp 5F744E3B)
    (at 65.9 43.9 90)
    (descr "Resistor SMD 0603 (1608 Metric), square (rectangular) end terminal, IPC_7351 nominal, (Body size source: http://www.tortai-tech.com/upload/download/2011102023233369053.pdf), generated with kicad-footprint-generator")
    (tags resistor)
    (path /5F765128)
    (attr smd)
    (fp_text reference R11 (at 0 1.43 90) (layer F.Fab) hide
      (effects (font (size 1 1) (thickness 0.15)) (justify mirror))
    )
    (fp_text value 22k (at 0 -1.43 90) (layer B.Fab)
      (effects (font (size 1 1) (thickness 0.15)) (justify mirror))
    )
    (fp_line (start 1.48 -0.73) (end -1.48 -0.73) (layer B.CrtYd) (width 0.05))
    (fp_line (start 1.48 0.73) (end 1.48 -0.73) (layer B.CrtYd) (width 0.05))
    (fp_line (start -1.48 0.73) (end 1.48 0.73) (layer B.CrtYd) (width 0.05))
    (fp_line (start -1.48 -0.73) (end -1.48 0.73) (layer B.CrtYd) (width 0.05))
    (fp_line (start -0.162779 -0.51) (end 0.162779 -0.51) (layer B.SilkS) (width 0.12))
    (fp_line (start -0.162779 0.51) (end 0.162779 0.51) (layer B.SilkS) (width 0.12))
    (fp_line (start 0.8 -0.4) (end -0.8 -0.4) (layer B.Fab) (width 0.1))
    (fp_line (start 0.8 0.4) (end 0.8 -0.4) (layer B.Fab) (width 0.1))
    (fp_line (start -0.8 0.4) (end 0.8 0.4) (layer B.Fab) (width 0.1))
    (fp_line (start -0.8 -0.4) (end -0.8 0.4) (layer B.Fab) (width 0.1))
    (fp_text user %R (at 0 0 90) (layer B.Fab)
      (effects (font (size 0.4 0.4) (thickness 0.06)) (justify mirror))
    )
    (pad 2 smd roundrect (at 0.7875 0 90) (size 0.875 0.95) (layers B.Cu B.Paste B.Mask) (roundrect_rratio 0.25)
      (net 25 "Net-(R11-Pad2)"))
    (pad 1 smd roundrect (at -0.7875 0 90) (size 0.875 0.95) (layers B.Cu B.Paste B.Mask) (roundrect_rratio 0.25)
      (net 4 /pin8))
    (model ${KISYS3DMOD}/Resistor_SMD.3dshapes/R_0603_1608Metric.wrl
      (at (xyz 0 0 0))
      (scale (xyz 1 1 1))
      (rotate (xyz 0 0 0))
    )
  )

  (module Resistor_SMD:R_0603_1608Metric (layer B.Cu) (tedit 5B301BBD) (tstamp 5F746E74)
    (at 63.7 43.9 90)
    (descr "Resistor SMD 0603 (1608 Metric), square (rectangular) end terminal, IPC_7351 nominal, (Body size source: http://www.tortai-tech.com/upload/download/2011102023233369053.pdf), generated with kicad-footprint-generator")
    (tags resistor)
    (path /5F758F8E)
    (attr smd)
    (fp_text reference R10 (at 0 1.43 90) (layer F.Fab) hide
      (effects (font (size 1 1) (thickness 0.15)) (justify mirror))
    )
    (fp_text value 22k (at 0 -1.43 90) (layer B.Fab)
      (effects (font (size 1 1) (thickness 0.15)) (justify mirror))
    )
    (fp_line (start 1.48 -0.73) (end -1.48 -0.73) (layer B.CrtYd) (width 0.05))
    (fp_line (start 1.48 0.73) (end 1.48 -0.73) (layer B.CrtYd) (width 0.05))
    (fp_line (start -1.48 0.73) (end 1.48 0.73) (layer B.CrtYd) (width 0.05))
    (fp_line (start -1.48 -0.73) (end -1.48 0.73) (layer B.CrtYd) (width 0.05))
    (fp_line (start -0.162779 -0.51) (end 0.162779 -0.51) (layer B.SilkS) (width 0.12))
    (fp_line (start -0.162779 0.51) (end 0.162779 0.51) (layer B.SilkS) (width 0.12))
    (fp_line (start 0.8 -0.4) (end -0.8 -0.4) (layer B.Fab) (width 0.1))
    (fp_line (start 0.8 0.4) (end 0.8 -0.4) (layer B.Fab) (width 0.1))
    (fp_line (start -0.8 0.4) (end 0.8 0.4) (layer B.Fab) (width 0.1))
    (fp_line (start -0.8 -0.4) (end -0.8 0.4) (layer B.Fab) (width 0.1))
    (fp_text user %R (at 0 0 90) (layer B.Fab)
      (effects (font (size 0.4 0.4) (thickness 0.06)) (justify mirror))
    )
    (pad 2 smd roundrect (at 0.7875 0 90) (size 0.875 0.95) (layers B.Cu B.Paste B.Mask) (roundrect_rratio 0.25)
      (net 24 "Net-(R10-Pad2)"))
    (pad 1 smd roundrect (at -0.7875 0 90) (size 0.875 0.95) (layers B.Cu B.Paste B.Mask) (roundrect_rratio 0.25)
      (net 5 /pin9))
    (model ${KISYS3DMOD}/Resistor_SMD.3dshapes/R_0603_1608Metric.wrl
      (at (xyz 0 0 0))
      (scale (xyz 1 1 1))
      (rotate (xyz 0 0 0))
    )
  )

  (module Resistor_SMD:R_0603_1608Metric (layer B.Cu) (tedit 5B301BBD) (tstamp 5F744E19)
    (at 56.3 52.8 90)
    (descr "Resistor SMD 0603 (1608 Metric), square (rectangular) end terminal, IPC_7351 nominal, (Body size source: http://www.tortai-tech.com/upload/download/2011102023233369053.pdf), generated with kicad-footprint-generator")
    (tags resistor)
    (path /5F790DAB)
    (attr smd)
    (fp_text reference R9 (at 0 1.43 90) (layer F.Fab) hide
      (effects (font (size 1 1) (thickness 0.15)) (justify mirror))
    )
    (fp_text value 100R (at 0 -1.43 90) (layer B.Fab)
      (effects (font (size 1 1) (thickness 0.15)) (justify mirror))
    )
    (fp_line (start 1.48 -0.73) (end -1.48 -0.73) (layer B.CrtYd) (width 0.05))
    (fp_line (start 1.48 0.73) (end 1.48 -0.73) (layer B.CrtYd) (width 0.05))
    (fp_line (start -1.48 0.73) (end 1.48 0.73) (layer B.CrtYd) (width 0.05))
    (fp_line (start -1.48 -0.73) (end -1.48 0.73) (layer B.CrtYd) (width 0.05))
    (fp_line (start -0.162779 -0.51) (end 0.162779 -0.51) (layer B.SilkS) (width 0.12))
    (fp_line (start -0.162779 0.51) (end 0.162779 0.51) (layer B.SilkS) (width 0.12))
    (fp_line (start 0.8 -0.4) (end -0.8 -0.4) (layer B.Fab) (width 0.1))
    (fp_line (start 0.8 0.4) (end 0.8 -0.4) (layer B.Fab) (width 0.1))
    (fp_line (start -0.8 0.4) (end 0.8 0.4) (layer B.Fab) (width 0.1))
    (fp_line (start -0.8 -0.4) (end -0.8 0.4) (layer B.Fab) (width 0.1))
    (fp_text user %R (at 0 0 90) (layer B.Fab)
      (effects (font (size 0.4 0.4) (thickness 0.06)) (justify mirror))
    )
    (pad 2 smd roundrect (at 0.7875 0 90) (size 0.875 0.95) (layers B.Cu B.Paste B.Mask) (roundrect_rratio 0.25)
      (net 23 "Net-(R9-Pad2)"))
    (pad 1 smd roundrect (at -0.7875 0 90) (size 0.875 0.95) (layers B.Cu B.Paste B.Mask) (roundrect_rratio 0.25)
      (net 3 /pin5))
    (model ${KISYS3DMOD}/Resistor_SMD.3dshapes/R_0603_1608Metric.wrl
      (at (xyz 0 0 0))
      (scale (xyz 1 1 1))
      (rotate (xyz 0 0 0))
    )
  )

  (module Resistor_SMD:R_0603_1608Metric (layer B.Cu) (tedit 5B301BBD) (tstamp 5F744E08)
    (at 67.8 48.9 180)
    (descr "Resistor SMD 0603 (1608 Metric), square (rectangular) end terminal, IPC_7351 nominal, (Body size source: http://www.tortai-tech.com/upload/download/2011102023233369053.pdf), generated with kicad-footprint-generator")
    (tags resistor)
    (path /5F777FB8)
    (attr smd)
    (fp_text reference R8 (at 0 1.43) (layer F.Fab) hide
      (effects (font (size 1 1) (thickness 0.15)) (justify mirror))
    )
    (fp_text value 47 (at 0 -1.43) (layer B.Fab)
      (effects (font (size 1 1) (thickness 0.15)) (justify mirror))
    )
    (fp_line (start 1.48 -0.73) (end -1.48 -0.73) (layer B.CrtYd) (width 0.05))
    (fp_line (start 1.48 0.73) (end 1.48 -0.73) (layer B.CrtYd) (width 0.05))
    (fp_line (start -1.48 0.73) (end 1.48 0.73) (layer B.CrtYd) (width 0.05))
    (fp_line (start -1.48 -0.73) (end -1.48 0.73) (layer B.CrtYd) (width 0.05))
    (fp_line (start -0.162779 -0.51) (end 0.162779 -0.51) (layer B.SilkS) (width 0.12))
    (fp_line (start -0.162779 0.51) (end 0.162779 0.51) (layer B.SilkS) (width 0.12))
    (fp_line (start 0.8 -0.4) (end -0.8 -0.4) (layer B.Fab) (width 0.1))
    (fp_line (start 0.8 0.4) (end 0.8 -0.4) (layer B.Fab) (width 0.1))
    (fp_line (start -0.8 0.4) (end 0.8 0.4) (layer B.Fab) (width 0.1))
    (fp_line (start -0.8 -0.4) (end -0.8 0.4) (layer B.Fab) (width 0.1))
    (fp_text user %R (at 0 0) (layer B.Fab)
      (effects (font (size 0.4 0.4) (thickness 0.06)) (justify mirror))
    )
    (pad 2 smd roundrect (at 0.7875 0 180) (size 0.875 0.95) (layers B.Cu B.Paste B.Mask) (roundrect_rratio 0.25)
      (net 21 "Net-(R8-Pad2)"))
    (pad 1 smd roundrect (at -0.7875 0 180) (size 0.875 0.95) (layers B.Cu B.Paste B.Mask) (roundrect_rratio 0.25)
      (net 22 "Net-(R8-Pad1)"))
    (model ${KISYS3DMOD}/Resistor_SMD.3dshapes/R_0603_1608Metric.wrl
      (at (xyz 0 0 0))
      (scale (xyz 1 1 1))
      (rotate (xyz 0 0 0))
    )
  )

  (module Resistor_SMD:R_0603_1608Metric (layer B.Cu) (tedit 5B301BBD) (tstamp 5F7477AF)
    (at 71.7 48.9)
    (descr "Resistor SMD 0603 (1608 Metric), square (rectangular) end terminal, IPC_7351 nominal, (Body size source: http://www.tortai-tech.com/upload/download/2011102023233369053.pdf), generated with kicad-footprint-generator")
    (tags resistor)
    (path /5F777E94)
    (attr smd)
    (fp_text reference R7 (at 0 1.43) (layer F.Fab) hide
      (effects (font (size 1 1) (thickness 0.15)) (justify mirror))
    )
    (fp_text value 47 (at 0 -1.43) (layer B.Fab)
      (effects (font (size 1 1) (thickness 0.15)) (justify mirror))
    )
    (fp_line (start 1.48 -0.73) (end -1.48 -0.73) (layer B.CrtYd) (width 0.05))
    (fp_line (start 1.48 0.73) (end 1.48 -0.73) (layer B.CrtYd) (width 0.05))
    (fp_line (start -1.48 0.73) (end 1.48 0.73) (layer B.CrtYd) (width 0.05))
    (fp_line (start -1.48 -0.73) (end -1.48 0.73) (layer B.CrtYd) (width 0.05))
    (fp_line (start -0.162779 -0.51) (end 0.162779 -0.51) (layer B.SilkS) (width 0.12))
    (fp_line (start -0.162779 0.51) (end 0.162779 0.51) (layer B.SilkS) (width 0.12))
    (fp_line (start 0.8 -0.4) (end -0.8 -0.4) (layer B.Fab) (width 0.1))
    (fp_line (start 0.8 0.4) (end 0.8 -0.4) (layer B.Fab) (width 0.1))
    (fp_line (start -0.8 0.4) (end 0.8 0.4) (layer B.Fab) (width 0.1))
    (fp_line (start -0.8 -0.4) (end -0.8 0.4) (layer B.Fab) (width 0.1))
    (fp_text user %R (at 0 0) (layer B.Fab)
      (effects (font (size 0.4 0.4) (thickness 0.06)) (justify mirror))
    )
    (pad 2 smd roundrect (at 0.7875 0) (size 0.875 0.95) (layers B.Cu B.Paste B.Mask) (roundrect_rratio 0.25)
      (net 19 "Net-(R7-Pad2)"))
    (pad 1 smd roundrect (at -0.7875 0) (size 0.875 0.95) (layers B.Cu B.Paste B.Mask) (roundrect_rratio 0.25)
      (net 20 "Net-(R7-Pad1)"))
    (model ${KISYS3DMOD}/Resistor_SMD.3dshapes/R_0603_1608Metric.wrl
      (at (xyz 0 0 0))
      (scale (xyz 1 1 1))
      (rotate (xyz 0 0 0))
    )
  )

  (module Resistor_SMD:R_0603_1608Metric (layer B.Cu) (tedit 5B301BBD) (tstamp 5F744DE6)
    (at 71.7 47.3)
    (descr "Resistor SMD 0603 (1608 Metric), square (rectangular) end terminal, IPC_7351 nominal, (Body size source: http://www.tortai-tech.com/upload/download/2011102023233369053.pdf), generated with kicad-footprint-generator")
    (tags resistor)
    (path /5F777CCC)
    (attr smd)
    (fp_text reference R6 (at 0 1.43) (layer F.Fab) hide
      (effects (font (size 1 1) (thickness 0.15)) (justify mirror))
    )
    (fp_text value 47 (at 0 -1.43) (layer B.Fab)
      (effects (font (size 1 1) (thickness 0.15)) (justify mirror))
    )
    (fp_line (start 1.48 -0.73) (end -1.48 -0.73) (layer B.CrtYd) (width 0.05))
    (fp_line (start 1.48 0.73) (end 1.48 -0.73) (layer B.CrtYd) (width 0.05))
    (fp_line (start -1.48 0.73) (end 1.48 0.73) (layer B.CrtYd) (width 0.05))
    (fp_line (start -1.48 -0.73) (end -1.48 0.73) (layer B.CrtYd) (width 0.05))
    (fp_line (start -0.162779 -0.51) (end 0.162779 -0.51) (layer B.SilkS) (width 0.12))
    (fp_line (start -0.162779 0.51) (end 0.162779 0.51) (layer B.SilkS) (width 0.12))
    (fp_line (start 0.8 -0.4) (end -0.8 -0.4) (layer B.Fab) (width 0.1))
    (fp_line (start 0.8 0.4) (end 0.8 -0.4) (layer B.Fab) (width 0.1))
    (fp_line (start -0.8 0.4) (end 0.8 0.4) (layer B.Fab) (width 0.1))
    (fp_line (start -0.8 -0.4) (end -0.8 0.4) (layer B.Fab) (width 0.1))
    (fp_text user %R (at 0 0) (layer B.Fab)
      (effects (font (size 0.4 0.4) (thickness 0.06)) (justify mirror))
    )
    (pad 2 smd roundrect (at 0.7875 0) (size 0.875 0.95) (layers B.Cu B.Paste B.Mask) (roundrect_rratio 0.25)
      (net 17 "Net-(R6-Pad2)"))
    (pad 1 smd roundrect (at -0.7875 0) (size 0.875 0.95) (layers B.Cu B.Paste B.Mask) (roundrect_rratio 0.25)
      (net 18 "Net-(R6-Pad1)"))
    (model ${KISYS3DMOD}/Resistor_SMD.3dshapes/R_0603_1608Metric.wrl
      (at (xyz 0 0 0))
      (scale (xyz 1 1 1))
      (rotate (xyz 0 0 0))
    )
  )

  (module Resistor_SMD:R_0603_1608Metric (layer B.Cu) (tedit 5B301BBD) (tstamp 5F744DD5)
    (at 67.8 47.3 180)
    (descr "Resistor SMD 0603 (1608 Metric), square (rectangular) end terminal, IPC_7351 nominal, (Body size source: http://www.tortai-tech.com/upload/download/2011102023233369053.pdf), generated with kicad-footprint-generator")
    (tags resistor)
    (path /5F7773F9)
    (attr smd)
    (fp_text reference R5 (at 0 1.43) (layer F.Fab) hide
      (effects (font (size 1 1) (thickness 0.15)) (justify mirror))
    )
    (fp_text value 47 (at 0 -1.43) (layer B.Fab)
      (effects (font (size 1 1) (thickness 0.15)) (justify mirror))
    )
    (fp_line (start 1.48 -0.73) (end -1.48 -0.73) (layer B.CrtYd) (width 0.05))
    (fp_line (start 1.48 0.73) (end 1.48 -0.73) (layer B.CrtYd) (width 0.05))
    (fp_line (start -1.48 0.73) (end 1.48 0.73) (layer B.CrtYd) (width 0.05))
    (fp_line (start -1.48 -0.73) (end -1.48 0.73) (layer B.CrtYd) (width 0.05))
    (fp_line (start -0.162779 -0.51) (end 0.162779 -0.51) (layer B.SilkS) (width 0.12))
    (fp_line (start -0.162779 0.51) (end 0.162779 0.51) (layer B.SilkS) (width 0.12))
    (fp_line (start 0.8 -0.4) (end -0.8 -0.4) (layer B.Fab) (width 0.1))
    (fp_line (start 0.8 0.4) (end 0.8 -0.4) (layer B.Fab) (width 0.1))
    (fp_line (start -0.8 0.4) (end 0.8 0.4) (layer B.Fab) (width 0.1))
    (fp_line (start -0.8 -0.4) (end -0.8 0.4) (layer B.Fab) (width 0.1))
    (fp_text user %R (at 0 0) (layer B.Fab)
      (effects (font (size 0.4 0.4) (thickness 0.06)) (justify mirror))
    )
    (pad 2 smd roundrect (at 0.7875 0 180) (size 0.875 0.95) (layers B.Cu B.Paste B.Mask) (roundrect_rratio 0.25)
      (net 15 "Net-(R5-Pad2)"))
    (pad 1 smd roundrect (at -0.7875 0 180) (size 0.875 0.95) (layers B.Cu B.Paste B.Mask) (roundrect_rratio 0.25)
      (net 16 "Net-(R5-Pad1)"))
    (model ${KISYS3DMOD}/Resistor_SMD.3dshapes/R_0603_1608Metric.wrl
      (at (xyz 0 0 0))
      (scale (xyz 1 1 1))
      (rotate (xyz 0 0 0))
    )
  )

  (module Resistor_SMD:R_0603_1608Metric (layer B.Cu) (tedit 5B301BBD) (tstamp 5F744DC4)
    (at 59.7 52.8 270)
    (descr "Resistor SMD 0603 (1608 Metric), square (rectangular) end terminal, IPC_7351 nominal, (Body size source: http://www.tortai-tech.com/upload/download/2011102023233369053.pdf), generated with kicad-footprint-generator")
    (tags resistor)
    (path /5F76E138)
    (attr smd)
    (fp_text reference R4 (at 0 1.43 90) (layer F.Fab) hide
      (effects (font (size 1 1) (thickness 0.15)) (justify mirror))
    )
    (fp_text value 22k (at 0 -1.43 90) (layer B.Fab)
      (effects (font (size 1 1) (thickness 0.15)) (justify mirror))
    )
    (fp_line (start 1.48 -0.73) (end -1.48 -0.73) (layer B.CrtYd) (width 0.05))
    (fp_line (start 1.48 0.73) (end 1.48 -0.73) (layer B.CrtYd) (width 0.05))
    (fp_line (start -1.48 0.73) (end 1.48 0.73) (layer B.CrtYd) (width 0.05))
    (fp_line (start -1.48 -0.73) (end -1.48 0.73) (layer B.CrtYd) (width 0.05))
    (fp_line (start -0.162779 -0.51) (end 0.162779 -0.51) (layer B.SilkS) (width 0.12))
    (fp_line (start -0.162779 0.51) (end 0.162779 0.51) (layer B.SilkS) (width 0.12))
    (fp_line (start 0.8 -0.4) (end -0.8 -0.4) (layer B.Fab) (width 0.1))
    (fp_line (start 0.8 0.4) (end 0.8 -0.4) (layer B.Fab) (width 0.1))
    (fp_line (start -0.8 0.4) (end 0.8 0.4) (layer B.Fab) (width 0.1))
    (fp_line (start -0.8 -0.4) (end -0.8 0.4) (layer B.Fab) (width 0.1))
    (fp_text user %R (at 0 0 90) (layer B.Fab)
      (effects (font (size 0.4 0.4) (thickness 0.06)) (justify mirror))
    )
    (pad 2 smd roundrect (at 0.7875 0 270) (size 0.875 0.95) (layers B.Cu B.Paste B.Mask) (roundrect_rratio 0.25)
      (net 3 /pin5))
    (pad 1 smd roundrect (at -0.7875 0 270) (size 0.875 0.95) (layers B.Cu B.Paste B.Mask) (roundrect_rratio 0.25)
      (net 14 "Net-(R4-Pad1)"))
    (model ${KISYS3DMOD}/Resistor_SMD.3dshapes/R_0603_1608Metric.wrl
      (at (xyz 0 0 0))
      (scale (xyz 1 1 1))
      (rotate (xyz 0 0 0))
    )
  )

  (module Resistor_SMD:R_0603_1608Metric (layer B.Cu) (tedit 5B301BBD) (tstamp 5F744DB3)
    (at 61.5 52.8 270)
    (descr "Resistor SMD 0603 (1608 Metric), square (rectangular) end terminal, IPC_7351 nominal, (Body size source: http://www.tortai-tech.com/upload/download/2011102023233369053.pdf), generated with kicad-footprint-generator")
    (tags resistor)
    (path /5F7716CA)
    (attr smd)
    (fp_text reference R3 (at 0 1.43 90) (layer F.Fab) hide
      (effects (font (size 1 1) (thickness 0.15)) (justify mirror))
    )
    (fp_text value 22k (at 0 -1.43 90) (layer B.Fab)
      (effects (font (size 1 1) (thickness 0.15)) (justify mirror))
    )
    (fp_line (start 1.48 -0.73) (end -1.48 -0.73) (layer B.CrtYd) (width 0.05))
    (fp_line (start 1.48 0.73) (end 1.48 -0.73) (layer B.CrtYd) (width 0.05))
    (fp_line (start -1.48 0.73) (end 1.48 0.73) (layer B.CrtYd) (width 0.05))
    (fp_line (start -1.48 -0.73) (end -1.48 0.73) (layer B.CrtYd) (width 0.05))
    (fp_line (start -0.162779 -0.51) (end 0.162779 -0.51) (layer B.SilkS) (width 0.12))
    (fp_line (start -0.162779 0.51) (end 0.162779 0.51) (layer B.SilkS) (width 0.12))
    (fp_line (start 0.8 -0.4) (end -0.8 -0.4) (layer B.Fab) (width 0.1))
    (fp_line (start 0.8 0.4) (end 0.8 -0.4) (layer B.Fab) (width 0.1))
    (fp_line (start -0.8 0.4) (end 0.8 0.4) (layer B.Fab) (width 0.1))
    (fp_line (start -0.8 -0.4) (end -0.8 0.4) (layer B.Fab) (width 0.1))
    (fp_text user %R (at 0 0 90) (layer B.Fab)
      (effects (font (size 0.4 0.4) (thickness 0.06)) (justify mirror))
    )
    (pad 2 smd roundrect (at 0.7875 0 270) (size 0.875 0.95) (layers B.Cu B.Paste B.Mask) (roundrect_rratio 0.25)
      (net 3 /pin5))
    (pad 1 smd roundrect (at -0.7875 0 270) (size 0.875 0.95) (layers B.Cu B.Paste B.Mask) (roundrect_rratio 0.25)
      (net 13 "Net-(R3-Pad1)"))
    (model ${KISYS3DMOD}/Resistor_SMD.3dshapes/R_0603_1608Metric.wrl
      (at (xyz 0 0 0))
      (scale (xyz 1 1 1))
      (rotate (xyz 0 0 0))
    )
  )

  (module Resistor_SMD:R_0603_1608Metric (layer B.Cu) (tedit 5B301BBD) (tstamp 5F746D0F)
    (at 64.1 52.1 90)
    (descr "Resistor SMD 0603 (1608 Metric), square (rectangular) end terminal, IPC_7351 nominal, (Body size source: http://www.tortai-tech.com/upload/download/2011102023233369053.pdf), generated with kicad-footprint-generator")
    (tags resistor)
    (path /5F787BCF)
    (attr smd)
    (fp_text reference R2 (at 0 1.43 90) (layer F.Fab) hide
      (effects (font (size 1 1) (thickness 0.15)) (justify mirror))
    )
    (fp_text value 10k (at 0 -1.43 90) (layer B.Fab)
      (effects (font (size 1 1) (thickness 0.15)) (justify mirror))
    )
    (fp_line (start 1.48 -0.73) (end -1.48 -0.73) (layer B.CrtYd) (width 0.05))
    (fp_line (start 1.48 0.73) (end 1.48 -0.73) (layer B.CrtYd) (width 0.05))
    (fp_line (start -1.48 0.73) (end 1.48 0.73) (layer B.CrtYd) (width 0.05))
    (fp_line (start -1.48 -0.73) (end -1.48 0.73) (layer B.CrtYd) (width 0.05))
    (fp_line (start -0.162779 -0.51) (end 0.162779 -0.51) (layer B.SilkS) (width 0.12))
    (fp_line (start -0.162779 0.51) (end 0.162779 0.51) (layer B.SilkS) (width 0.12))
    (fp_line (start 0.8 -0.4) (end -0.8 -0.4) (layer B.Fab) (width 0.1))
    (fp_line (start 0.8 0.4) (end 0.8 -0.4) (layer B.Fab) (width 0.1))
    (fp_line (start -0.8 0.4) (end 0.8 0.4) (layer B.Fab) (width 0.1))
    (fp_line (start -0.8 -0.4) (end -0.8 0.4) (layer B.Fab) (width 0.1))
    (fp_text user %R (at 0 0 90) (layer B.Fab)
      (effects (font (size 0.4 0.4) (thickness 0.06)) (justify mirror))
    )
    (pad 2 smd roundrect (at 0.7875 0 90) (size 0.875 0.95) (layers B.Cu B.Paste B.Mask) (roundrect_rratio 0.25)
      (net 7 /pin6))
    (pad 1 smd roundrect (at -0.7875 0 90) (size 0.875 0.95) (layers B.Cu B.Paste B.Mask) (roundrect_rratio 0.25)
      (net 12 "Net-(R2-Pad1)"))
    (model ${KISYS3DMOD}/Resistor_SMD.3dshapes/R_0603_1608Metric.wrl
      (at (xyz 0 0 0))
      (scale (xyz 1 1 1))
      (rotate (xyz 0 0 0))
    )
  )

  (module Resistor_SMD:R_0603_1608Metric (layer B.Cu) (tedit 5B301BBD) (tstamp 5F744D91)
    (at 66 52.1 90)
    (descr "Resistor SMD 0603 (1608 Metric), square (rectangular) end terminal, IPC_7351 nominal, (Body size source: http://www.tortai-tech.com/upload/download/2011102023233369053.pdf), generated with kicad-footprint-generator")
    (tags resistor)
    (path /5F788024)
    (attr smd)
    (fp_text reference R1 (at 0 1.43 90) (layer F.Fab) hide
      (effects (font (size 1 1) (thickness 0.15)) (justify mirror))
    )
    (fp_text value 10k (at 0 -1.43 90) (layer B.Fab)
      (effects (font (size 1 1) (thickness 0.15)) (justify mirror))
    )
    (fp_line (start 1.48 -0.73) (end -1.48 -0.73) (layer B.CrtYd) (width 0.05))
    (fp_line (start 1.48 0.73) (end 1.48 -0.73) (layer B.CrtYd) (width 0.05))
    (fp_line (start -1.48 0.73) (end 1.48 0.73) (layer B.CrtYd) (width 0.05))
    (fp_line (start -1.48 -0.73) (end -1.48 0.73) (layer B.CrtYd) (width 0.05))
    (fp_line (start -0.162779 -0.51) (end 0.162779 -0.51) (layer B.SilkS) (width 0.12))
    (fp_line (start -0.162779 0.51) (end 0.162779 0.51) (layer B.SilkS) (width 0.12))
    (fp_line (start 0.8 -0.4) (end -0.8 -0.4) (layer B.Fab) (width 0.1))
    (fp_line (start 0.8 0.4) (end 0.8 -0.4) (layer B.Fab) (width 0.1))
    (fp_line (start -0.8 0.4) (end 0.8 0.4) (layer B.Fab) (width 0.1))
    (fp_line (start -0.8 -0.4) (end -0.8 0.4) (layer B.Fab) (width 0.1))
    (fp_text user %R (at 0 0 90) (layer B.Fab)
      (effects (font (size 0.4 0.4) (thickness 0.06)) (justify mirror))
    )
    (pad 2 smd roundrect (at 0.7875 0 90) (size 0.875 0.95) (layers B.Cu B.Paste B.Mask) (roundrect_rratio 0.25)
      (net 6 /pin7))
    (pad 1 smd roundrect (at -0.7875 0 90) (size 0.875 0.95) (layers B.Cu B.Paste B.Mask) (roundrect_rratio 0.25)
      (net 11 "Net-(R1-Pad1)"))
    (model ${KISYS3DMOD}/Resistor_SMD.3dshapes/R_0603_1608Metric.wrl
      (at (xyz 0 0 0))
      (scale (xyz 1 1 1))
      (rotate (xyz 0 0 0))
    )
  )

  (module Capacitor_SMD:C_0603_1608Metric_Pad1.05x0.95mm_HandSolder (layer F.Cu) (tedit 5B301BBE) (tstamp 5F747E2E)
    (at 56.6 45.1 270)
    (descr "Capacitor SMD 0603 (1608 Metric), square (rectangular) end terminal, IPC_7351 nominal with elongated pad for handsoldering. (Body size source: http://www.tortai-tech.com/upload/download/2011102023233369053.pdf), generated with kicad-footprint-generator")
    (tags "capacitor handsolder")
    (path /5F81D062)
    (attr smd)
    (fp_text reference C1 (at 0 -1.43 90) (layer F.Fab) hide
      (effects (font (size 1 1) (thickness 0.15)))
    )
    (fp_text value 10nF (at 0 1.43 90) (layer F.Fab)
      (effects (font (size 1 1) (thickness 0.15)))
    )
    (fp_line (start 1.65 0.73) (end -1.65 0.73) (layer F.CrtYd) (width 0.05))
    (fp_line (start 1.65 -0.73) (end 1.65 0.73) (layer F.CrtYd) (width 0.05))
    (fp_line (start -1.65 -0.73) (end 1.65 -0.73) (layer F.CrtYd) (width 0.05))
    (fp_line (start -1.65 0.73) (end -1.65 -0.73) (layer F.CrtYd) (width 0.05))
    (fp_line (start -0.171267 0.51) (end 0.171267 0.51) (layer F.SilkS) (width 0.12))
    (fp_line (start -0.171267 -0.51) (end 0.171267 -0.51) (layer F.SilkS) (width 0.12))
    (fp_line (start 0.8 0.4) (end -0.8 0.4) (layer F.Fab) (width 0.1))
    (fp_line (start 0.8 -0.4) (end 0.8 0.4) (layer F.Fab) (width 0.1))
    (fp_line (start -0.8 -0.4) (end 0.8 -0.4) (layer F.Fab) (width 0.1))
    (fp_line (start -0.8 0.4) (end -0.8 -0.4) (layer F.Fab) (width 0.1))
    (fp_text user %R (at 0 0 90) (layer F.Fab)
      (effects (font (size 0.4 0.4) (thickness 0.06)))
    )
    (pad 2 smd roundrect (at 0.875 0 270) (size 1.05 0.95) (layers F.Cu F.Paste F.Mask) (roundrect_rratio 0.25)
      (net 2 GND))
    (pad 1 smd roundrect (at -0.875 0 270) (size 1.05 0.95) (layers F.Cu F.Paste F.Mask) (roundrect_rratio 0.25)
      (net 1 VCC))
    (model ${KISYS3DMOD}/Capacitor_SMD.3dshapes/C_0603_1608Metric.wrl
      (at (xyz 0 0 0))
      (scale (xyz 1 1 1))
      (rotate (xyz 0 0 0))
    )
  )

  (module Package_SO:SOIC-14W_7.5x9.0mm_P1.27mm (layer F.Cu) (tedit 5F73BD02) (tstamp 5F72D7C2)
    (at 62.7 48.1 90)
    (descr "14-Lead Plastic Small Outline (SO) - Wide, 7.50 mm Body (http://www.ti.com/lit/ds/symlink/lm1877.pdf)")
    (tags "SOIC 1.27")
    (path /5F81D08B)
    (attr smd)
    (fp_text reference U5 (at -2.8 -5.6 90) (layer F.SilkS)
      (effects (font (size 1 1) (thickness 0.15)))
    )
    (fp_text value PIC16F1574-ISL_0 (at 0 5.6 90) (layer F.Fab)
      (effects (font (size 1 1) (thickness 0.15)))
    )
    (fp_line (start -2.75 -4.5) (end 3.75 -4.5) (layer F.Fab) (width 0.15))
    (fp_line (start 3.75 -4.5) (end 3.75 4.5) (layer F.Fab) (width 0.15))
    (fp_line (start 3.75 4.5) (end -3.75 4.5) (layer F.Fab) (width 0.15))
    (fp_line (start -3.75 4.5) (end -3.75 -3.5) (layer F.Fab) (width 0.15))
    (fp_line (start -3.75 -3.5) (end -2.75 -4.5) (layer F.Fab) (width 0.15))
    (fp_line (start -5.65 -4.75) (end -5.65 4.75) (layer F.CrtYd) (width 0.05))
    (fp_line (start 5.65 -4.75) (end 5.65 4.75) (layer F.CrtYd) (width 0.05))
    (fp_line (start -5.65 -4.75) (end 5.65 -4.75) (layer F.CrtYd) (width 0.05))
    (fp_line (start -5.65 4.75) (end 5.65 4.75) (layer F.CrtYd) (width 0.05))
    (fp_line (start -3.875 -4.675) (end -3.875 -4.4) (layer F.SilkS) (width 0.15))
    (fp_line (start 3.875 -4.675) (end 3.875 -4.32) (layer F.SilkS) (width 0.15))
    (fp_line (start 3.875 4.675) (end 3.875 4.32) (layer F.SilkS) (width 0.15))
    (fp_line (start -3.875 4.675) (end -3.875 4.32) (layer F.SilkS) (width 0.15))
    (fp_line (start -3.875 -4.675) (end 3.875 -4.675) (layer F.SilkS) (width 0.15))
    (fp_line (start -3.875 4.675) (end 3.875 4.675) (layer F.SilkS) (width 0.15))
    (fp_line (start -3.875 -4.4) (end -5.4 -4.4) (layer F.SilkS) (width 0.15))
    (fp_text user %R (at 0 0 90) (layer F.Fab)
      (effects (font (size 1 1) (thickness 0.15)))
    )
    (pad 8 smd rect (at 4.65 3.81 90) (size 1.5 0.6) (layers F.Cu F.Paste F.Mask)
      (net 4 /pin8))
    (pad 14 smd rect (at 4.65 -3.81 90) (size 1.5 0.6) (layers F.Cu F.Paste F.Mask)
      (net 2 GND))
    (pad 13 smd rect (at 4.65 -2.54 90) (size 1.5 0.6) (layers F.Cu F.Paste F.Mask)
      (net 9 "Net-(TP4-Pad1)"))
    (pad 12 smd rect (at 4.65 -1.27 90) (size 1.5 0.6) (layers F.Cu F.Paste F.Mask)
      (net 10 "Net-(TP5-Pad1)"))
    (pad 11 smd rect (at 4.65 0 90) (size 1.5 0.6) (layers F.Cu F.Paste F.Mask))
    (pad 10 smd rect (at 4.65 1.27 90) (size 1.5 0.6) (layers F.Cu F.Paste F.Mask))
    (pad 9 smd rect (at 4.65 2.54 90) (size 1.5 0.6) (layers F.Cu F.Paste F.Mask)
      (net 5 /pin9))
    (pad 7 smd rect (at -4.65 3.81 90) (size 1.5 0.6) (layers F.Cu F.Paste F.Mask)
      (net 6 /pin7))
    (pad 6 smd rect (at -4.65 2.54 90) (size 1.5 0.6) (layers F.Cu F.Paste F.Mask)
      (net 7 /pin6))
    (pad 5 smd rect (at -4.65 1.27 90) (size 1.5 0.6) (layers F.Cu F.Paste F.Mask)
      (net 3 /pin5))
    (pad 4 smd rect (at -4.65 0 90) (size 1.5 0.6) (layers F.Cu F.Paste F.Mask)
      (net 8 "Net-(TP1-Pad1)"))
    (pad 3 smd rect (at -4.65 -1.27 90) (size 1.5 0.6) (layers F.Cu F.Paste F.Mask))
    (pad 2 smd rect (at -4.65 -2.54 90) (size 1.5 0.6) (layers F.Cu F.Paste F.Mask))
    (pad 1 smd rect (at -4.65 -3.81 90) (size 1.5 0.6) (layers F.Cu F.Paste F.Mask)
      (net 1 VCC))
    (model ${KISYS3DMOD}/Package_SO.3dshapes/SOIC-14W_7.5x9.0mm_P1.27mm.wrl
      (at (xyz 0 0 0))
      (scale (xyz 1 1 1))
      (rotate (xyz 0 0 0))
    )
  )

  (module UMZ1NTR:SOP65P210X100-6N (layer B.Cu) (tedit 5F73C1F9) (tstamp 5F72D743)
    (at 57.3 44.9 270)
    (path /5F7DB870)
    (fp_text reference U1 (at -0.068 1.8064 270) (layer F.Fab) hide
      (effects (font (size 0.64 0.64) (thickness 0.015)) (justify mirror))
    )
    (fp_text value UMZ1NTR (at 4.4024 -1.7936 270) (layer B.Fab) hide
      (effects (font (size 0.64 0.64) (thickness 0.015)) (justify mirror))
    )
    (fp_circle (center -2.1 0.7) (end -2 0.7) (layer B.Fab) (width 0.2))
    (fp_circle (center -2.1 0.7) (end -2 0.7) (layer B.SilkS) (width 0.2))
    (fp_line (start 1.72 -1.1) (end 1.72 1.1) (layer B.CrtYd) (width 0.05))
    (fp_line (start -1.72 -1.1) (end -1.72 1.1) (layer B.CrtYd) (width 0.05))
    (fp_line (start -0.93 -1.1) (end -1.72 -1.1) (layer B.CrtYd) (width 0.05))
    (fp_line (start -0.93 -1.3) (end -0.93 -1.1) (layer B.CrtYd) (width 0.05))
    (fp_line (start 0.93 -1.3) (end -0.93 -1.3) (layer B.CrtYd) (width 0.05))
    (fp_line (start 0.93 -1.1) (end 0.93 -1.3) (layer B.CrtYd) (width 0.05))
    (fp_line (start 1.72 -1.1) (end 0.93 -1.1) (layer B.CrtYd) (width 0.05))
    (fp_line (start 0.93 1.1) (end 1.72 1.1) (layer B.CrtYd) (width 0.05))
    (fp_line (start 0.93 1.3) (end 0.93 1.1) (layer B.CrtYd) (width 0.05))
    (fp_line (start -0.93 1.3) (end 0.93 1.3) (layer B.CrtYd) (width 0.05))
    (fp_line (start -0.93 1.1) (end -0.93 1.3) (layer B.CrtYd) (width 0.05))
    (fp_line (start -1.72 1.1) (end -0.93 1.1) (layer B.CrtYd) (width 0.05))
    (fp_line (start -0.68 -1.17) (end 0.68 -1.17) (layer B.SilkS) (width 0.127))
    (fp_line (start -0.68 1.17) (end 0.68 1.17) (layer B.SilkS) (width 0.127))
    (fp_line (start 0.68 -1.05) (end -0.68 -1.05) (layer B.Fab) (width 0.127))
    (fp_line (start 0.68 1.05) (end 0.68 -1.05) (layer B.Fab) (width 0.127))
    (fp_line (start -0.68 1.05) (end 0.68 1.05) (layer B.Fab) (width 0.127))
    (fp_line (start -0.68 -1.05) (end -0.68 1.05) (layer B.Fab) (width 0.127))
    (pad 6 smd rect (at 0.92 0.65 270) (size 1.09 0.4) (layers B.Cu B.Paste B.Mask)
      (net 1 VCC))
    (pad 5 smd rect (at 0.92 0 270) (size 1.09 0.4) (layers B.Cu B.Paste B.Mask)
      (net 24 "Net-(R10-Pad2)"))
    (pad 4 smd rect (at 0.92 -0.65 270) (size 1.09 0.4) (layers B.Cu B.Paste B.Mask)
      (net 1 VCC))
    (pad 3 smd rect (at -0.92 -0.65 270) (size 1.09 0.4) (layers B.Cu B.Paste B.Mask)
      (net 15 "Net-(R5-Pad2)"))
    (pad 2 smd rect (at -0.92 0 270) (size 1.09 0.4) (layers B.Cu B.Paste B.Mask)
      (net 12 "Net-(R2-Pad1)"))
    (pad 1 smd rect (at -0.92 0.65 270) (size 1.09 0.4) (layers B.Cu B.Paste B.Mask)
      (net 17 "Net-(R6-Pad2)"))
    (model ${KISYS3DMOD}/SOT363.step
      (offset (xyz 1.62 0.9399999999999999 -0.8))
      (scale (xyz 1 1 1))
      (rotate (xyz -90 0 90))
    )
  )

  (module UMZ1NTR:SOP65P210X100-6N (layer B.Cu) (tedit 5F73C1F9) (tstamp 5F72D761)
    (at 57.3 49 90)
    (path /5F7DB87A)
    (fp_text reference U2 (at -0.068 1.8064 270) (layer F.Fab) hide
      (effects (font (size 0.64 0.64) (thickness 0.015)) (justify mirror))
    )
    (fp_text value UMZ1NTR (at 4.4024 -1.7936 270) (layer B.Fab) hide
      (effects (font (size 0.64 0.64) (thickness 0.015)) (justify mirror))
    )
    (fp_circle (center -2.1 0.7) (end -2 0.7) (layer B.Fab) (width 0.2))
    (fp_circle (center -2.1 0.7) (end -2 0.7) (layer B.SilkS) (width 0.2))
    (fp_line (start 1.72 -1.1) (end 1.72 1.1) (layer B.CrtYd) (width 0.05))
    (fp_line (start -1.72 -1.1) (end -1.72 1.1) (layer B.CrtYd) (width 0.05))
    (fp_line (start -0.93 -1.1) (end -1.72 -1.1) (layer B.CrtYd) (width 0.05))
    (fp_line (start -0.93 -1.3) (end -0.93 -1.1) (layer B.CrtYd) (width 0.05))
    (fp_line (start 0.93 -1.3) (end -0.93 -1.3) (layer B.CrtYd) (width 0.05))
    (fp_line (start 0.93 -1.1) (end 0.93 -1.3) (layer B.CrtYd) (width 0.05))
    (fp_line (start 1.72 -1.1) (end 0.93 -1.1) (layer B.CrtYd) (width 0.05))
    (fp_line (start 0.93 1.1) (end 1.72 1.1) (layer B.CrtYd) (width 0.05))
    (fp_line (start 0.93 1.3) (end 0.93 1.1) (layer B.CrtYd) (width 0.05))
    (fp_line (start -0.93 1.3) (end 0.93 1.3) (layer B.CrtYd) (width 0.05))
    (fp_line (start -0.93 1.1) (end -0.93 1.3) (layer B.CrtYd) (width 0.05))
    (fp_line (start -1.72 1.1) (end -0.93 1.1) (layer B.CrtYd) (width 0.05))
    (fp_line (start -0.68 -1.17) (end 0.68 -1.17) (layer B.SilkS) (width 0.127))
    (fp_line (start -0.68 1.17) (end 0.68 1.17) (layer B.SilkS) (width 0.127))
    (fp_line (start 0.68 -1.05) (end -0.68 -1.05) (layer B.Fab) (width 0.127))
    (fp_line (start 0.68 1.05) (end 0.68 -1.05) (layer B.Fab) (width 0.127))
    (fp_line (start -0.68 1.05) (end 0.68 1.05) (layer B.Fab) (width 0.127))
    (fp_line (start -0.68 -1.05) (end -0.68 1.05) (layer B.Fab) (width 0.127))
    (pad 6 smd rect (at 0.92 0.65 90) (size 1.09 0.4) (layers B.Cu B.Paste B.Mask)
      (net 1 VCC))
    (pad 5 smd rect (at 0.92 0 90) (size 1.09 0.4) (layers B.Cu B.Paste B.Mask)
      (net 25 "Net-(R11-Pad2)"))
    (pad 4 smd rect (at 0.92 -0.65 90) (size 1.09 0.4) (layers B.Cu B.Paste B.Mask)
      (net 1 VCC))
    (pad 3 smd rect (at -0.92 -0.65 90) (size 1.09 0.4) (layers B.Cu B.Paste B.Mask)
      (net 21 "Net-(R8-Pad2)"))
    (pad 2 smd rect (at -0.92 0 90) (size 1.09 0.4) (layers B.Cu B.Paste B.Mask)
      (net 11 "Net-(R1-Pad1)"))
    (pad 1 smd rect (at -0.92 0.65 90) (size 1.09 0.4) (layers B.Cu B.Paste B.Mask)
      (net 19 "Net-(R7-Pad2)"))
    (model ${KISYS3DMOD}/SOT363.step
      (offset (xyz 1.62 0.9399999999999999 -0.8))
      (scale (xyz 1 1 1))
      (rotate (xyz -90 0 90))
    )
  )

  (module UMZ1NTR:SOP65P210X100-6N (layer B.Cu) (tedit 5F73C1F9) (tstamp 5F72D77F)
    (at 60.6 44.9 90)
    (path /5F7DB884)
    (fp_text reference U3 (at -0.068 1.8064 270) (layer F.Fab) hide
      (effects (font (size 0.64 0.64) (thickness 0.015)) (justify mirror))
    )
    (fp_text value UMZ1NTR (at 4.4024 -1.7936 270) (layer B.Fab) hide
      (effects (font (size 0.64 0.64) (thickness 0.015)) (justify mirror))
    )
    (fp_circle (center -2.1 0.7) (end -2 0.7) (layer B.Fab) (width 0.2))
    (fp_circle (center -2.1 0.7) (end -2 0.7) (layer B.SilkS) (width 0.2))
    (fp_line (start 1.72 -1.1) (end 1.72 1.1) (layer B.CrtYd) (width 0.05))
    (fp_line (start -1.72 -1.1) (end -1.72 1.1) (layer B.CrtYd) (width 0.05))
    (fp_line (start -0.93 -1.1) (end -1.72 -1.1) (layer B.CrtYd) (width 0.05))
    (fp_line (start -0.93 -1.3) (end -0.93 -1.1) (layer B.CrtYd) (width 0.05))
    (fp_line (start 0.93 -1.3) (end -0.93 -1.3) (layer B.CrtYd) (width 0.05))
    (fp_line (start 0.93 -1.1) (end 0.93 -1.3) (layer B.CrtYd) (width 0.05))
    (fp_line (start 1.72 -1.1) (end 0.93 -1.1) (layer B.CrtYd) (width 0.05))
    (fp_line (start 0.93 1.1) (end 1.72 1.1) (layer B.CrtYd) (width 0.05))
    (fp_line (start 0.93 1.3) (end 0.93 1.1) (layer B.CrtYd) (width 0.05))
    (fp_line (start -0.93 1.3) (end 0.93 1.3) (layer B.CrtYd) (width 0.05))
    (fp_line (start -0.93 1.1) (end -0.93 1.3) (layer B.CrtYd) (width 0.05))
    (fp_line (start -1.72 1.1) (end -0.93 1.1) (layer B.CrtYd) (width 0.05))
    (fp_line (start -0.68 -1.17) (end 0.68 -1.17) (layer B.SilkS) (width 0.127))
    (fp_line (start -0.68 1.17) (end 0.68 1.17) (layer B.SilkS) (width 0.127))
    (fp_line (start 0.68 -1.05) (end -0.68 -1.05) (layer B.Fab) (width 0.127))
    (fp_line (start 0.68 1.05) (end 0.68 -1.05) (layer B.Fab) (width 0.127))
    (fp_line (start -0.68 1.05) (end 0.68 1.05) (layer B.Fab) (width 0.127))
    (fp_line (start -0.68 -1.05) (end -0.68 1.05) (layer B.Fab) (width 0.127))
    (pad 6 smd rect (at 0.92 0.65 90) (size 1.09 0.4) (layers B.Cu B.Paste B.Mask)
      (net 18 "Net-(R6-Pad1)"))
    (pad 5 smd rect (at 0.92 0 90) (size 1.09 0.4) (layers B.Cu B.Paste B.Mask)
      (net 23 "Net-(R9-Pad2)"))
    (pad 4 smd rect (at 0.92 -0.65 90) (size 1.09 0.4) (layers B.Cu B.Paste B.Mask)
      (net 16 "Net-(R5-Pad1)"))
    (pad 3 smd rect (at -0.92 -0.65 90) (size 1.09 0.4) (layers B.Cu B.Paste B.Mask)
      (net 2 GND))
    (pad 2 smd rect (at -0.92 0 90) (size 1.09 0.4) (layers B.Cu B.Paste B.Mask)
      (net 13 "Net-(R3-Pad1)"))
    (pad 1 smd rect (at -0.92 0.65 90) (size 1.09 0.4) (layers B.Cu B.Paste B.Mask)
      (net 2 GND))
    (model ${KISYS3DMOD}/SOT363.step
      (offset (xyz 1.62 0.9399999999999999 -0.8))
      (scale (xyz 1 1 1))
      (rotate (xyz -90 0 90))
    )
  )

  (module UMZ1NTR:SOP65P210X100-6N (layer B.Cu) (tedit 5F73C1F9) (tstamp 5F72D79D)
    (at 60.6 49 270)
    (path /5F7DB88E)
    (fp_text reference U4 (at -0.068 1.8064 270) (layer F.Fab) hide
      (effects (font (size 0.64 0.64) (thickness 0.015)) (justify mirror))
    )
    (fp_text value UMZ1NTR (at 4.4024 -1.7936 270) (layer B.Fab) hide
      (effects (font (size 0.64 0.64) (thickness 0.015)) (justify mirror))
    )
    (fp_circle (center -2.1 0.7) (end -2 0.7) (layer B.Fab) (width 0.2))
    (fp_circle (center -2.1 0.7) (end -2 0.7) (layer B.SilkS) (width 0.2))
    (fp_line (start 1.72 -1.1) (end 1.72 1.1) (layer B.CrtYd) (width 0.05))
    (fp_line (start -1.72 -1.1) (end -1.72 1.1) (layer B.CrtYd) (width 0.05))
    (fp_line (start -0.93 -1.1) (end -1.72 -1.1) (layer B.CrtYd) (width 0.05))
    (fp_line (start -0.93 -1.3) (end -0.93 -1.1) (layer B.CrtYd) (width 0.05))
    (fp_line (start 0.93 -1.3) (end -0.93 -1.3) (layer B.CrtYd) (width 0.05))
    (fp_line (start 0.93 -1.1) (end 0.93 -1.3) (layer B.CrtYd) (width 0.05))
    (fp_line (start 1.72 -1.1) (end 0.93 -1.1) (layer B.CrtYd) (width 0.05))
    (fp_line (start 0.93 1.1) (end 1.72 1.1) (layer B.CrtYd) (width 0.05))
    (fp_line (start 0.93 1.3) (end 0.93 1.1) (layer B.CrtYd) (width 0.05))
    (fp_line (start -0.93 1.3) (end 0.93 1.3) (layer B.CrtYd) (width 0.05))
    (fp_line (start -0.93 1.1) (end -0.93 1.3) (layer B.CrtYd) (width 0.05))
    (fp_line (start -1.72 1.1) (end -0.93 1.1) (layer B.CrtYd) (width 0.05))
    (fp_line (start -0.68 -1.17) (end 0.68 -1.17) (layer B.SilkS) (width 0.127))
    (fp_line (start -0.68 1.17) (end 0.68 1.17) (layer B.SilkS) (width 0.127))
    (fp_line (start 0.68 -1.05) (end -0.68 -1.05) (layer B.Fab) (width 0.127))
    (fp_line (start 0.68 1.05) (end 0.68 -1.05) (layer B.Fab) (width 0.127))
    (fp_line (start -0.68 1.05) (end 0.68 1.05) (layer B.Fab) (width 0.127))
    (fp_line (start -0.68 -1.05) (end -0.68 1.05) (layer B.Fab) (width 0.127))
    (pad 6 smd rect (at 0.92 0.65 270) (size 1.09 0.4) (layers B.Cu B.Paste B.Mask)
      (net 20 "Net-(R7-Pad1)"))
    (pad 5 smd rect (at 0.92 0 270) (size 1.09 0.4) (layers B.Cu B.Paste B.Mask)
      (net 26 "Net-(R12-Pad2)"))
    (pad 4 smd rect (at 0.92 -0.65 270) (size 1.09 0.4) (layers B.Cu B.Paste B.Mask)
      (net 22 "Net-(R8-Pad1)"))
    (pad 3 smd rect (at -0.92 -0.65 270) (size 1.09 0.4) (layers B.Cu B.Paste B.Mask)
      (net 2 GND))
    (pad 2 smd rect (at -0.92 0 270) (size 1.09 0.4) (layers B.Cu B.Paste B.Mask)
      (net 14 "Net-(R4-Pad1)"))
    (pad 1 smd rect (at -0.92 0.65 270) (size 1.09 0.4) (layers B.Cu B.Paste B.Mask)
      (net 2 GND))
    (model ${KISYS3DMOD}/SOT363.step
      (offset (xyz 1.62 0.9399999999999999 -0.8))
      (scale (xyz 1 1 1))
      (rotate (xyz -90 0 90))
    )
  )

  (module Connector_PinHeader_2.54mm:PinHeader_1x02_P2.54mm_Vertical (layer F.Cu) (tedit 59FED5CC) (tstamp 5F74EF5E)
    (at 52.8 49.3)
    (descr "Through hole straight pin header, 1x02, 2.54mm pitch, single row")
    (tags "Through hole pin header THT 1x02 2.54mm single row")
    (path /5F81D04D)
    (fp_text reference J3 (at -3.4 0.9) (layer F.Fab) hide
      (effects (font (size 1 1) (thickness 0.15)))
    )
    (fp_text value Conn_01x02 (at 0 4.87) (layer F.Fab) hide
      (effects (font (size 1 1) (thickness 0.15)))
    )
    (fp_line (start 1.8 -1.8) (end -1.8 -1.8) (layer F.CrtYd) (width 0.05))
    (fp_line (start 1.8 4.35) (end 1.8 -1.8) (layer F.CrtYd) (width 0.05))
    (fp_line (start -1.8 4.35) (end 1.8 4.35) (layer F.CrtYd) (width 0.05))
    (fp_line (start -1.8 -1.8) (end -1.8 4.35) (layer F.CrtYd) (width 0.05))
    (fp_line (start -1.33 -1.33) (end 0 -1.33) (layer F.SilkS) (width 0.12))
    (fp_line (start -1.33 0) (end -1.33 -1.33) (layer F.SilkS) (width 0.12))
    (fp_line (start -1.33 1.27) (end 1.33 1.27) (layer F.SilkS) (width 0.12))
    (fp_line (start 1.33 1.27) (end 1.33 3.87) (layer F.SilkS) (width 0.12))
    (fp_line (start -1.33 1.27) (end -1.33 3.87) (layer F.SilkS) (width 0.12))
    (fp_line (start -1.33 3.87) (end 1.33 3.87) (layer F.SilkS) (width 0.12))
    (fp_line (start -1.27 -0.635) (end -0.635 -1.27) (layer F.Fab) (width 0.1))
    (fp_line (start -1.27 3.81) (end -1.27 -0.635) (layer F.Fab) (width 0.1))
    (fp_line (start 1.27 3.81) (end -1.27 3.81) (layer F.Fab) (width 0.1))
    (fp_line (start 1.27 -1.27) (end 1.27 3.81) (layer F.Fab) (width 0.1))
    (fp_line (start -0.635 -1.27) (end 1.27 -1.27) (layer F.Fab) (width 0.1))
    (fp_text user %R (at 0 1.27 90) (layer F.Fab)
      (effects (font (size 1 1) (thickness 0.15)))
    )
    (pad 1 thru_hole rect (at 0 0) (size 1.7 1.7) (drill 1) (layers *.Cu *.Mask)
      (net 1 VCC))
    (pad 2 thru_hole oval (at 0 2.54) (size 1.7 1.7) (drill 1) (layers *.Cu *.Mask)
      (net 2 GND))
    (model ${KISYS3DMOD}/Connector_PinHeader_2.54mm.3dshapes/PinHeader_1x02_P2.54mm_Vertical.wrl
      (at (xyz 0 0 0))
      (scale (xyz 1 1 1))
      (rotate (xyz 0 0 0))
    )
  )

  (module TestPoint:TestPoint_Pad_D1.5mm (layer F.Cu) (tedit 5A0F774F) (tstamp 5F72D6CD)
    (at 71.3 43 270)
    (descr "SMD pad as test Point, diameter 1.5mm")
    (tags "test point SMD pad")
    (path /5F759F03)
    (attr virtual)
    (fp_text reference TP1 (at 0 -1.648 90) (layer F.Fab) hide
      (effects (font (size 1 1) (thickness 0.15)))
    )
    (fp_text value MCLR (at 0 2.7 180) (layer F.SilkS)
      (effects (font (size 0.8 0.8) (thickness 0.15)))
    )
    (fp_circle (center 0 0) (end 0 0.95) (layer F.SilkS) (width 0.12))
    (fp_circle (center 0 0) (end 1.25 0) (layer F.CrtYd) (width 0.05))
    (fp_text user %R (at 0 -1.65 90) (layer F.Fab) hide
      (effects (font (size 1 1) (thickness 0.15)))
    )
    (pad 1 smd circle (at 0 0 270) (size 1.5 1.5) (layers F.Cu F.Mask)
      (net 8 "Net-(TP1-Pad1)"))
  )

  (module TestPoint:TestPoint_Pad_D1.5mm (layer F.Cu) (tedit 5F73D6E6) (tstamp 5F72D6D5)
    (at 71.3 45.54 270)
    (descr "SMD pad as test Point, diameter 1.5mm")
    (tags "test point SMD pad")
    (path /5F75B2C7)
    (attr virtual)
    (fp_text reference TP2 (at 0 -1.648 90) (layer F.Fab) hide
      (effects (font (size 1 1) (thickness 0.15)))
    )
    (fp_text value VCC (at 0 2.3) (layer F.SilkS)
      (effects (font (size 0.8 0.8) (thickness 0.15)))
    )
    (fp_circle (center 0 0) (end 0 0.95) (layer F.SilkS) (width 0.12))
    (fp_circle (center 0 0) (end 1.25 0) (layer F.CrtYd) (width 0.05))
    (fp_text user %R (at 0 -1.65 90) (layer F.Fab) hide
      (effects (font (size 1 1) (thickness 0.15)))
    )
    (pad 1 smd circle (at 0 0 270) (size 1.5 1.5) (layers F.Cu F.Mask)
      (net 1 VCC))
  )

  (module TestPoint:TestPoint_Pad_D1.5mm (layer F.Cu) (tedit 5F73D6EB) (tstamp 5F72D6DD)
    (at 71.3 48.08 270)
    (descr "SMD pad as test Point, diameter 1.5mm")
    (tags "test point SMD pad")
    (path /5F75B4E1)
    (attr virtual)
    (fp_text reference TP3 (at 0 -1.648 90) (layer F.Fab) hide
      (effects (font (size 1 1) (thickness 0.15)))
    )
    (fp_text value GND (at 0 2.4) (layer F.SilkS)
      (effects (font (size 0.8 0.8) (thickness 0.15)))
    )
    (fp_circle (center 0 0) (end 1.25 0) (layer F.CrtYd) (width 0.05))
    (fp_circle (center 0 0) (end 0 0.95) (layer F.SilkS) (width 0.12))
    (fp_text user %R (at 0 -1.65 90) (layer F.Fab) hide
      (effects (font (size 1 1) (thickness 0.15)))
    )
    (pad 1 smd circle (at 0 0 270) (size 1.5 1.5) (layers F.Cu F.Mask)
      (net 2 GND))
  )

  (module TestPoint:TestPoint_Pad_D1.5mm (layer F.Cu) (tedit 5F73D6EF) (tstamp 5F72D6E5)
    (at 71.3 50.62 270)
    (descr "SMD pad as test Point, diameter 1.5mm")
    (tags "test point SMD pad")
    (path /5F75B6F6)
    (attr virtual)
    (fp_text reference TP4 (at 0 -4.5 90) (layer F.Fab) hide
      (effects (font (size 1 1) (thickness 0.15)))
    )
    (fp_text value DAT (at 0 2.2) (layer F.SilkS)
      (effects (font (size 0.8 0.8) (thickness 0.15)))
    )
    (fp_circle (center 0 0) (end 0 0.95) (layer F.SilkS) (width 0.12))
    (fp_circle (center 0 0) (end 1.25 0) (layer F.CrtYd) (width 0.05))
    (fp_text user %R (at 0 -4.5 90) (layer F.Fab) hide
      (effects (font (size 1 1) (thickness 0.15)))
    )
    (pad 1 smd circle (at 0 0 270) (size 1.5 1.5) (layers F.Cu F.Mask)
      (net 9 "Net-(TP4-Pad1)"))
  )

  (module TestPoint:TestPoint_Pad_D1.5mm (layer F.Cu) (tedit 5F73D6F4) (tstamp 5F72D6ED)
    (at 71.3 53.16 270)
    (descr "SMD pad as test Point, diameter 1.5mm")
    (tags "test point SMD pad")
    (path /5F75B8E7)
    (attr virtual)
    (fp_text reference TP5 (at 0 -2.6 90) (layer F.Fab) hide
      (effects (font (size 1 1) (thickness 0.15)))
    )
    (fp_text value CLK (at 0 2.2) (layer F.SilkS)
      (effects (font (size 0.8 0.8) (thickness 0.15)))
    )
    (fp_circle (center 0 0) (end 1.25 0) (layer F.CrtYd) (width 0.05))
    (fp_circle (center 0 0) (end 0 0.95) (layer F.SilkS) (width 0.12))
    (fp_text user %R (at 0 -1.65 90) (layer F.Fab) hide
      (effects (font (size 1 1) (thickness 0.15)))
    )
    (pad 1 smd circle (at 0 0 270) (size 1.5 1.5) (layers F.Cu F.Mask)
      (net 10 "Net-(TP5-Pad1)"))
  )

  (module TestPoint:TestPoint_Pad_1.5x4mm (layer B.Cu) (tedit 5F726DE8) (tstamp 5F72D6FB)
    (at 71.3 44.1)
    (descr "SMD rectangular pad as test Point, square 1.5mm side length")
    (tags "test point SMD pad rectangle square")
    (path /5F7617D7)
    (attr virtual)
    (fp_text reference TP6 (at 0 3.248) (layer B.Fab) hide
      (effects (font (size 1 1) (thickness 0.15)) (justify mirror))
    )
    (fp_text value 69_pair_A (at 0 -3.2 -180) (layer B.Fab) hide
      (effects (font (size 1 1) (thickness 0.15)) (justify mirror))
    )
    (fp_line (start -0.95 2.2) (end 0.95 2.2) (layer B.SilkS) (width 0.12))
    (fp_line (start 0.95 2.2) (end 0.95 -2.2) (layer B.SilkS) (width 0.12))
    (fp_line (start 0.95 -2.2) (end -0.95 -2.2) (layer B.SilkS) (width 0.12))
    (fp_line (start -0.95 -2.2) (end -0.95 2.2) (layer B.SilkS) (width 0.12))
    (fp_line (start -1.25 2.4) (end 1.25 2.4) (layer B.CrtYd) (width 0.05))
    (fp_line (start -1.25 2.4) (end -1.25 -2.4) (layer B.CrtYd) (width 0.05))
    (fp_line (start 1.25 -2.4) (end 1.25 2.4) (layer B.CrtYd) (width 0.05))
    (fp_line (start 1.25 -2.4) (end -1.25 -2.4) (layer B.CrtYd) (width 0.05))
    (fp_text user %R (at 0 3.25) (layer B.Fab) hide
      (effects (font (size 1 1) (thickness 0.15)) (justify mirror))
    )
    (pad 1 smd rect (at 0 0) (size 1.5 4) (layers B.Cu B.Mask)
      (net 18 "Net-(R6-Pad1)"))
  )

  (module TestPoint:TestPoint_Pad_1.5x4mm (layer B.Cu) (tedit 5F726DE8) (tstamp 5F72D709)
    (at 68.6 44.1)
    (descr "SMD rectangular pad as test Point, square 1.5mm side length")
    (tags "test point SMD pad rectangle square")
    (path /5F762519)
    (attr virtual)
    (fp_text reference TP7 (at 0 3.248) (layer B.Fab) hide
      (effects (font (size 1 1) (thickness 0.15)) (justify mirror))
    )
    (fp_text value 69_pair_B (at 0 -3.2) (layer B.Fab) hide
      (effects (font (size 1 1) (thickness 0.15)) (justify mirror))
    )
    (fp_line (start 1.25 -2.4) (end -1.25 -2.4) (layer B.CrtYd) (width 0.05))
    (fp_line (start 1.25 -2.4) (end 1.25 2.4) (layer B.CrtYd) (width 0.05))
    (fp_line (start -1.25 2.4) (end -1.25 -2.4) (layer B.CrtYd) (width 0.05))
    (fp_line (start -1.25 2.4) (end 1.25 2.4) (layer B.CrtYd) (width 0.05))
    (fp_line (start -0.95 -2.2) (end -0.95 2.2) (layer B.SilkS) (width 0.12))
    (fp_line (start 0.95 -2.2) (end -0.95 -2.2) (layer B.SilkS) (width 0.12))
    (fp_line (start 0.95 2.2) (end 0.95 -2.2) (layer B.SilkS) (width 0.12))
    (fp_line (start -0.95 2.2) (end 0.95 2.2) (layer B.SilkS) (width 0.12))
    (fp_text user %R (at 0 3.25) (layer B.Fab) hide
      (effects (font (size 1 1) (thickness 0.15)) (justify mirror))
    )
    (pad 1 smd rect (at 0 0) (size 1.5 4) (layers B.Cu B.Mask)
      (net 16 "Net-(R5-Pad1)"))
  )

  (module TestPoint:TestPoint_Pad_1.5x4mm (layer B.Cu) (tedit 5F726DE8) (tstamp 5F72D717)
    (at 71.3 52.1)
    (descr "SMD rectangular pad as test Point, square 1.5mm side length")
    (tags "test point SMD pad rectangle square")
    (path /5F764737)
    (attr virtual)
    (fp_text reference TP8 (at 0 3.248) (layer B.Fab) hide
      (effects (font (size 1 1) (thickness 0.15)) (justify mirror))
    )
    (fp_text value 78_pair_A (at 0 -3.2) (layer B.Fab) hide
      (effects (font (size 1 1) (thickness 0.15)) (justify mirror))
    )
    (fp_line (start -0.95 2.2) (end 0.95 2.2) (layer B.SilkS) (width 0.12))
    (fp_line (start 0.95 2.2) (end 0.95 -2.2) (layer B.SilkS) (width 0.12))
    (fp_line (start 0.95 -2.2) (end -0.95 -2.2) (layer B.SilkS) (width 0.12))
    (fp_line (start -0.95 -2.2) (end -0.95 2.2) (layer B.SilkS) (width 0.12))
    (fp_line (start -1.25 2.4) (end 1.25 2.4) (layer B.CrtYd) (width 0.05))
    (fp_line (start -1.25 2.4) (end -1.25 -2.4) (layer B.CrtYd) (width 0.05))
    (fp_line (start 1.25 -2.4) (end 1.25 2.4) (layer B.CrtYd) (width 0.05))
    (fp_line (start 1.25 -2.4) (end -1.25 -2.4) (layer B.CrtYd) (width 0.05))
    (fp_text user %R (at 0 3.25) (layer B.Fab) hide
      (effects (font (size 1 1) (thickness 0.15)) (justify mirror))
    )
    (pad 1 smd rect (at 0 0) (size 1.5 4) (layers B.Cu B.Mask)
      (net 20 "Net-(R7-Pad1)"))
  )

  (module TestPoint:TestPoint_Pad_1.5x4mm (layer B.Cu) (tedit 5F726DE8) (tstamp 5F72D725)
    (at 68.6 52.1)
    (descr "SMD rectangular pad as test Point, square 1.5mm side length")
    (tags "test point SMD pad rectangle square")
    (path /5F764D64)
    (attr virtual)
    (fp_text reference TP9 (at 0 3.248) (layer B.Fab) hide
      (effects (font (size 1 1) (thickness 0.15)) (justify mirror))
    )
    (fp_text value 78_pair_B (at 0 -3.2) (layer B.Fab) hide
      (effects (font (size 1 1) (thickness 0.15)) (justify mirror))
    )
    (fp_line (start 1.25 -2.4) (end -1.25 -2.4) (layer B.CrtYd) (width 0.05))
    (fp_line (start 1.25 -2.4) (end 1.25 2.4) (layer B.CrtYd) (width 0.05))
    (fp_line (start -1.25 2.4) (end -1.25 -2.4) (layer B.CrtYd) (width 0.05))
    (fp_line (start -1.25 2.4) (end 1.25 2.4) (layer B.CrtYd) (width 0.05))
    (fp_line (start -0.95 -2.2) (end -0.95 2.2) (layer B.SilkS) (width 0.12))
    (fp_line (start 0.95 -2.2) (end -0.95 -2.2) (layer B.SilkS) (width 0.12))
    (fp_line (start 0.95 2.2) (end 0.95 -2.2) (layer B.SilkS) (width 0.12))
    (fp_line (start -0.95 2.2) (end 0.95 2.2) (layer B.SilkS) (width 0.12))
    (fp_text user %R (at 0 3.25) (layer B.Fab) hide
      (effects (font (size 1 1) (thickness 0.15)) (justify mirror))
    )
    (pad 1 smd rect (at 0 0) (size 1.5 4) (layers B.Cu B.Mask)
      (net 22 "Net-(R8-Pad1)"))
  )

  (gr_line (start 53.3 47.7) (end 53.7 47.7) (layer Edge.Cuts) (width 0.05) (tstamp 5F72F99B))
  (gr_arc (start 53.7 47.2) (end 53.7 47.7) (angle -90) (layer Edge.Cuts) (width 0.05) (tstamp 5F72F991))
  (gr_arc (start 53.3 48.2) (end 53.3 47.7) (angle -90) (layer Edge.Cuts) (width 0.05))
  (gr_line (start 54.2 42) (end 54.2 47.2) (layer Edge.Cuts) (width 0.05))
  (gr_arc (start 72.6 54.2) (end 72.6 54.9) (angle -90) (layer Edge.Cuts) (width 0.05))
  (gr_arc (start 53.6 54.1) (end 52.8 54.1) (angle -90) (layer Edge.Cuts) (width 0.05))
  (gr_arc (start 54.9 42) (end 54.9 41.3) (angle -90) (layer Edge.Cuts) (width 0.05))
  (gr_arc (start 72.6 42) (end 73.3 42) (angle -90) (layer Edge.Cuts) (width 0.05))
  (gr_line (start 53.6 54.9) (end 72.6 54.9) (layer Edge.Cuts) (width 0.05) (tstamp 5F72F8BE))
  (gr_line (start 54.9 41.3) (end 72.6 41.3) (layer Edge.Cuts) (width 0.05))
  (gr_line (start 73.3 42) (end 73.3 54.2) (layer Edge.Cuts) (width 0.05) (tstamp 5F72F8B8))
  (gr_line (start 52.8 48.2) (end 52.8 54.1) (layer Edge.Cuts) (width 0.05))
  (gr_text A (at 72.8 42.4 180) (layer B.SilkS) (tstamp 5F72F030)
    (effects (font (size 0.8 0.8) (thickness 0.15)) (justify mirror))
  )
  (gr_text B (at 67.1 42.3 180) (layer B.SilkS) (tstamp 5F72F02F)
    (effects (font (size 0.8 0.8) (thickness 0.15)) (justify mirror))
  )
  (gr_text A (at 72.8 53.8) (layer B.SilkS) (tstamp 5F72F02B)
    (effects (font (size 0.8 0.8) (thickness 0.15)) (justify mirror))
  )
  (gr_text B (at 67.2 53.8) (layer B.SilkS) (tstamp 5F72F027)
    (effects (font (size 0.8 0.8) (thickness 0.15)) (justify mirror))
  )
  (gr_text 78 (at 69.8 49 90) (layer B.SilkS) (tstamp 5F72F020)
    (effects (font (size 0.7 0.7) (thickness 0.12)) (justify mirror))
  )
  (gr_text 69 (at 69.8 47.2 90) (layer B.SilkS) (tstamp 5F74BB23)
    (effects (font (size 0.7 0.7) (thickness 0.12)) (justify mirror))
  )
  (gr_circle (center 57.4 53) (end 57.6 53) (layer F.SilkS) (width 0.12))
  (gr_text - (at 55 51.8) (layer F.SilkS) (tstamp 5F72ECC6)
    (effects (font (size 1.2 1.2) (thickness 0.3)))
  )
  (gr_text + (at 55 49.2) (layer F.SilkS)
    (effects (font (size 1.2 1.2) (thickness 0.3)))
  )

  (via (at 61.1 51) (size 0.6) (drill 0.3) (layers F.Cu B.Cu) (net 22))
  (segment (start 56.65 45.094998) (end 56.65 45.82) (width 0.2) (layer B.Cu) (net 1))
  (segment (start 57.780001 44.924999) (end 56.819999 44.924999) (width 0.2) (layer B.Cu) (net 1))
  (segment (start 56.819999 44.924999) (end 56.65 45.094998) (width 0.2) (layer B.Cu) (net 1))
  (segment (start 57.95 45.094998) (end 57.780001 44.924999) (width 0.2) (layer B.Cu) (net 1))
  (segment (start 57.95 45.82) (end 57.95 45.094998) (width 0.2) (layer B.Cu) (net 1))
  (segment (start 57.95 48.805002) (end 57.95 48.08) (width 0.2) (layer B.Cu) (net 1))
  (segment (start 57.780001 48.975001) (end 57.95 48.805002) (width 0.2) (layer B.Cu) (net 1))
  (segment (start 56.700001 48.975001) (end 57.780001 48.975001) (width 0.2) (layer B.Cu) (net 1))
  (segment (start 56.65 48.925) (end 56.700001 48.975001) (width 0.2) (layer B.Cu) (net 1))
  (segment (start 56.65 48.08) (end 56.65 48.925) (width 0.2) (layer B.Cu) (net 1))
  (via (at 55.7 48.9) (size 0.6) (drill 0.3) (layers F.Cu B.Cu) (net 1) (tstamp 5F74E30A))
  (segment (start 55.6 48.8) (end 55.7 48.9) (width 0.2) (layer F.Cu) (net 1))
  (segment (start 56.625 48.9) (end 56.65 48.925) (width 0.2) (layer B.Cu) (net 1))
  (segment (start 55.7 48.9) (end 56.625 48.9) (width 0.2) (layer B.Cu) (net 1))
  (via (at 57.2 52.8) (size 0.6) (drill 0.3) (layers F.Cu B.Cu) (net 1) (tstamp 5F74E909))
  (segment (start 57.25 52.75) (end 57.2 52.8) (width 0.2) (layer F.Cu) (net 1))
  (segment (start 58.89 52.75) (end 57.25 52.75) (width 0.2) (layer F.Cu) (net 1))
  (segment (start 55.47499 52.47499) (end 55.47499 49.12501) (width 0.2) (layer B.Cu) (net 1))
  (segment (start 55.8 52.8) (end 55.47499 52.47499) (width 0.2) (layer B.Cu) (net 1))
  (segment (start 55.47499 49.12501) (end 55.7 48.9) (width 0.2) (layer B.Cu) (net 1))
  (segment (start 57.2 52.8) (end 55.8 52.8) (width 0.2) (layer B.Cu) (net 1))
  (segment (start 53.8 48.3) (end 53.17501 48.92499) (width 0.2) (layer F.Cu) (net 1))
  (segment (start 55.6 48.3) (end 53.8 48.3) (width 0.2) (layer F.Cu) (net 1))
  (segment (start 55.6 48.3) (end 55.6 48.8) (width 0.2) (layer F.Cu) (net 1))
  (segment (start 53.17501 48.92499) (end 53.17501 49.3) (width 0.2) (layer F.Cu) (net 1))
  (segment (start 56.644998 45.1) (end 56.65 45.094998) (width 0.2) (layer B.Cu) (net 1))
  (segment (start 55.725 45.1) (end 56.644998 45.1) (width 0.2) (layer B.Cu) (net 1))
  (via (at 55.725 45.1) (size 0.6) (drill 0.3) (layers F.Cu B.Cu) (net 1))
  (segment (start 55.725 45.1) (end 56.6 44.225) (width 0.2) (layer F.Cu) (net 1))
  (segment (start 55.725 48.175) (end 55.6 48.3) (width 0.2) (layer F.Cu) (net 1))
  (segment (start 55.725 45.1) (end 55.725 48.175) (width 0.2) (layer F.Cu) (net 1))
  (segment (start 60.119999 44.924999) (end 59.95 45.094998) (width 0.2) (layer B.Cu) (net 2))
  (segment (start 61.080001 44.924999) (end 60.119999 44.924999) (width 0.2) (layer B.Cu) (net 2))
  (segment (start 59.95 45.094998) (end 59.95 45.82) (width 0.2) (layer B.Cu) (net 2))
  (segment (start 61.25 45.094998) (end 61.080001 44.924999) (width 0.2) (layer B.Cu) (net 2))
  (segment (start 61.25 45.82) (end 61.25 45.094998) (width 0.2) (layer B.Cu) (net 2))
  (segment (start 61.25 48.95) (end 61.25 48.08) (width 0.2) (layer B.Cu) (net 2))
  (segment (start 61.224999 48.975001) (end 61.25 48.95) (width 0.2) (layer B.Cu) (net 2))
  (segment (start 60.119999 48.975001) (end 61.224999 48.975001) (width 0.2) (layer B.Cu) (net 2))
  (segment (start 59.95 48.805002) (end 60.119999 48.975001) (width 0.2) (layer B.Cu) (net 2))
  (segment (start 59.95 48.08) (end 59.95 48.805002) (width 0.2) (layer B.Cu) (net 2))
  (via (at 60.2 47) (size 0.6) (drill 0.3) (layers F.Cu B.Cu) (net 14) (tstamp 5F74E475))
  (segment (start 56.6 45.975) (end 56.6 48.962002) (width 0.2) (layer F.Cu) (net 2))
  (segment (start 53.722002 51.84) (end 53.17501 51.84) (width 0.2) (layer F.Cu) (net 2))
  (segment (start 56.6 48.962002) (end 53.722002 51.84) (width 0.2) (layer F.Cu) (net 2))
  (segment (start 58.9 46.4) (end 58.249999 46.349999) (width 0.2) (layer F.Cu) (net 2))
  (segment (start 58.249999 44.090001) (end 58.89 43.45) (width 0.2) (layer F.Cu) (net 2))
  (via (at 58.9 46.4) (size 0.6) (drill 0.3) (layers F.Cu B.Cu) (net 2))
  (segment (start 58.249999 46.349999) (end 58.249999 44.090001) (width 0.2) (layer F.Cu) (net 2))
  (segment (start 58.9 46.4) (end 59.4 46.37) (width 0.2) (layer B.Cu) (net 2))
  (segment (start 59.4 46.37) (end 59.95 45.82) (width 0.2) (layer B.Cu) (net 2))
  (segment (start 57.875 45.975) (end 58.249999 46.349999) (width 0.2) (layer F.Cu) (net 2))
  (segment (start 56.6 45.975) (end 57.875 45.975) (width 0.2) (layer F.Cu) (net 2))
  (segment (start 58.9 46.4) (end 59.95 48.08) (width 0.2) (layer B.Cu) (net 2))
  (via (at 62.7 51.4) (size 0.6) (drill 0.3) (layers F.Cu B.Cu) (net 3))
  (via (at 65.1 50.3) (size 0.6) (drill 0.3) (layers F.Cu B.Cu) (net 7))
  (via (at 66 50.3) (size 0.6) (drill 0.3) (layers F.Cu B.Cu) (net 6))
  (segment (start 66.51 50.81) (end 66 50.3) (width 0.3) (layer F.Cu) (net 6))
  (segment (start 56.3 53.5875) (end 58 53.5875) (width 0.2) (layer B.Cu) (net 3))
  (segment (start 58 53.5875) (end 59.7 53.5875) (width 0.2) (layer B.Cu) (net 3))
  (segment (start 59.7 53.5875) (end 61.5 53.5875) (width 0.2) (layer B.Cu) (net 3))
  (segment (start 63.97 53.160002) (end 63.97 52.75) (width 0.2) (layer F.Cu) (net 3))
  (segment (start 63.67 51.4) (end 62.7 51.4) (width 0.2) (layer F.Cu) (net 3))
  (segment (start 63.97 51.7) (end 63.67 51.4) (width 0.2) (layer F.Cu) (net 3))
  (segment (start 63.97 52.75) (end 63.97 51.7) (width 0.2) (layer F.Cu) (net 3))
  (segment (start 62.7 52.3875) (end 61.5 53.5875) (width 0.2) (layer B.Cu) (net 3))
  (segment (start 62.7 51.4) (end 62.7 52.3875) (width 0.2) (layer B.Cu) (net 3))
  (via (at 65.9 45.6) (size 0.6) (drill 0.3) (layers F.Cu B.Cu) (net 4))
  (segment (start 65.9 44.6875) (end 65.9 45.6) (width 0.2) (layer B.Cu) (net 4))
  (segment (start 65.9 44.06) (end 66.51 43.45) (width 0.2) (layer F.Cu) (net 4))
  (segment (start 65.9 45.6) (end 65.9 44.06) (width 0.2) (layer F.Cu) (net 4))
  (via (at 64.8 44.9) (size 0.6) (drill 0.3) (layers F.Cu B.Cu) (net 5))
  (via (at 67.3 43.3) (size 0.6) (drill 0.3) (layers F.Cu B.Cu) (net 15) (tstamp 5F750436))
  (segment (start 64.5875 44.6875) (end 64.8 44.9) (width 0.2) (layer B.Cu) (net 5))
  (segment (start 63.7 44.6875) (end 64.5875 44.6875) (width 0.2) (layer B.Cu) (net 5))
  (segment (start 64.8 43.89) (end 65.24 43.45) (width 0.2) (layer F.Cu) (net 5))
  (segment (start 64.8 44.9) (end 64.8 43.89) (width 0.2) (layer F.Cu) (net 5))
  (segment (start 66.51 52.75) (end 66.51 50.81) (width 0.3) (layer F.Cu) (net 6))
  (segment (start 66 50.3) (end 66 51.3125) (width 0.3) (layer B.Cu) (net 6))
  (via (at 66.9 50.3) (size 0.6) (drill 0.3) (layers F.Cu B.Cu) (net 11) (tstamp 5F74E38F))
  (segment (start 65.24 50.44) (end 65.1 50.3) (width 0.2) (layer F.Cu) (net 7))
  (segment (start 65.24 52.75) (end 65.24 50.44) (width 0.2) (layer F.Cu) (net 7))
  (segment (start 65.1 50.3125) (end 64.1 51.3125) (width 0.2) (layer B.Cu) (net 7))
  (segment (start 65.1 50.3) (end 65.1 50.3125) (width 0.2) (layer B.Cu) (net 7))
  (segment (start 66.9 51.9875) (end 66.9 50.3) (width 0.2) (layer B.Cu) (net 11))
  (segment (start 66 52.8875) (end 66.9 51.9875) (width 0.2) (layer B.Cu) (net 11))
  (segment (start 66.9 49.875736) (end 66.9 50.3) (width 0.2) (layer F.Cu) (net 11))
  (segment (start 58.287999 49.649999) (end 66.674263 49.649999) (width 0.2) (layer F.Cu) (net 11))
  (via (at 57.5 51) (size 0.6) (drill 0.3) (layers F.Cu B.Cu) (net 11))
  (segment (start 66.674263 49.649999) (end 66.9 49.875736) (width 0.2) (layer F.Cu) (net 11))
  (segment (start 57.5 50.437998) (end 57.5 51) (width 0.2) (layer F.Cu) (net 11))
  (segment (start 58.287999 49.649999) (end 57.5 50.437998) (width 0.2) (layer F.Cu) (net 11))
  (segment (start 57.399999 50.019999) (end 57.3 49.92) (width 0.2) (layer B.Cu) (net 11))
  (segment (start 57.399999 50.899999) (end 57.399999 50.019999) (width 0.2) (layer B.Cu) (net 11))
  (segment (start 57.5 51) (end 57.399999 50.899999) (width 0.2) (layer B.Cu) (net 11))
  (segment (start 64.1 52.8875) (end 62.61249 54.37501) (width 0.2) (layer B.Cu) (net 12))
  (segment (start 62.61249 54.37501) (end 55.72499 54.37501) (width 0.2) (layer B.Cu) (net 12))
  (segment (start 55.72499 54.37501) (end 54.97498 53.625) (width 0.2) (layer B.Cu) (net 12))
  (segment (start 54.97498 53.625) (end 54.97498 44.32502) (width 0.2) (layer B.Cu) (net 12))
  (segment (start 54.97498 43.937018) (end 54.97498 44.32502) (width 0.2) (layer B.Cu) (net 12))
  (segment (start 55.826999 43.084999) (end 54.97498 43.937018) (width 0.2) (layer B.Cu) (net 12))
  (segment (start 57.130001 43.084999) (end 55.826999 43.084999) (width 0.2) (layer B.Cu) (net 12))
  (segment (start 57.3 43.254998) (end 57.130001 43.084999) (width 0.2) (layer B.Cu) (net 12))
  (segment (start 57.3 43.98) (end 57.3 43.254998) (width 0.2) (layer B.Cu) (net 12))
  (segment (start 61.800001 51.712499) (end 61.5 52.0125) (width 0.2) (layer B.Cu) (net 13))
  (segment (start 61.800001 47.254999) (end 61.800001 51.712499) (width 0.2) (layer B.Cu) (net 13))
  (segment (start 61.730001 47.184999) (end 61.800001 47.254999) (width 0.2) (layer B.Cu) (net 13))
  (segment (start 60.6 46.449998) (end 61.335001 47.184999) (width 0.2) (layer B.Cu) (net 13))
  (segment (start 61.335001 47.184999) (end 61.730001 47.184999) (width 0.2) (layer B.Cu) (net 13))
  (segment (start 60.6 45.82) (end 60.6 46.449998) (width 0.2) (layer B.Cu) (net 13))
  (segment (start 60.6 47.4) (end 60.2 47) (width 0.2) (layer B.Cu) (net 14))
  (segment (start 60.6 48.08) (end 60.6 47.4) (width 0.2) (layer B.Cu) (net 14))
  (segment (start 59 48.2) (end 59 51.3125) (width 0.2) (layer B.Cu) (net 14))
  (segment (start 59 51.3125) (end 59.7 52.0125) (width 0.2) (layer B.Cu) (net 14))
  (via (at 59 48.2) (size 0.6) (drill 0.3) (layers F.Cu B.Cu) (net 14))
  (segment (start 59 48.2) (end 60.2 47) (width 0.2) (layer F.Cu) (net 14))
  (segment (start 66.399999 46.687499) (end 67.0125 47.3) (width 0.2) (layer B.Cu) (net 15))
  (segment (start 66.399999 46.011999) (end 66.399999 46.687499) (width 0.2) (layer B.Cu) (net 15))
  (segment (start 67.3 45.111998) (end 66.399999 46.011999) (width 0.2) (layer B.Cu) (net 15))
  (segment (start 67.3 43.3) (end 67.3 45.111998) (width 0.2) (layer B.Cu) (net 15))
  (segment (start 57.95 42.85) (end 57.95 43.98) (width 0.2) (layer B.Cu) (net 15))
  (via (at 57.9 42.8) (size 0.6) (drill 0.3) (layers F.Cu B.Cu) (net 15))
  (segment (start 57.9 42.8) (end 57.95 42.85) (width 0.2) (layer B.Cu) (net 15))
  (segment (start 67.3 42.649998) (end 67.3 43.3) (width 0.2) (layer F.Cu) (net 15))
  (segment (start 66.9 42.3) (end 67.3 42.649998) (width 0.2) (layer F.Cu) (net 15))
  (segment (start 57.9 42.8) (end 58.450589 42.349411) (width 0.2) (layer F.Cu) (net 15))
  (segment (start 58.450589 42.349411) (end 66.9 42.3) (width 0.2) (layer F.Cu) (net 15))
  (via (at 58.9 45.5) (size 0.6) (drill 0.3) (layers F.Cu B.Cu) (net 16) (tstamp 5F74EE32))
  (segment (start 68.5875 44.1125) (end 68.6 44.1) (width 0.2) (layer B.Cu) (net 16))
  (segment (start 68.5875 47.3) (end 68.5875 44.1125) (width 0.2) (layer B.Cu) (net 16))
  (segment (start 58.9 45.03) (end 59.95 43.98) (width 0.2) (layer B.Cu) (net 16))
  (segment (start 58.9 45.5) (end 58.9 45.03) (width 0.2) (layer B.Cu) (net 16))
  (segment (start 68.6 44.624264) (end 68.6 44.1) (width 0.2) (layer B.Cu) (net 16))
  (via (at 67 46.3) (size 0.6) (drill 0.3) (layers F.Cu B.Cu) (net 16))
  (segment (start 67.5875 46.3) (end 68.5875 47.3) (width 0.2) (layer B.Cu) (net 16))
  (segment (start 67 46.3) (end 67.5875 46.3) (width 0.2) (layer B.Cu) (net 16))
  (segment (start 65.311998 46.3) (end 67 46.3) (width 0.2) (layer F.Cu) (net 16))
  (segment (start 63.711997 44.699999) (end 65.311998 46.3) (width 0.2) (layer F.Cu) (net 16))
  (segment (start 59.700001 44.699999) (end 63.711997 44.699999) (width 0.2) (layer F.Cu) (net 16))
  (segment (start 58.9 45.5) (end 59.700001 44.699999) (width 0.2) (layer F.Cu) (net 16))
  (via (at 55.6 44.2) (size 0.6) (drill 0.3) (layers F.Cu B.Cu) (net 17))
  (segment (start 56.43 44.2) (end 56.65 43.98) (width 0.2) (layer B.Cu) (net 17))
  (segment (start 55.6 44.2) (end 56.43 44.2) (width 0.2) (layer B.Cu) (net 17))
  (segment (start 69.7 46.8) (end 69.7 46.8) (width 0.2) (layer F.Cu) (net 17) (tstamp 5F74FFC6))
  (segment (start 67.005692 41.699991) (end 69.7 44.394299) (width 0.2) (layer F.Cu) (net 17))
  (segment (start 57.312007 41.699991) (end 67.005692 41.699991) (width 0.2) (layer F.Cu) (net 17))
  (segment (start 69.7 47.29614) (end 70.47887 48.07501) (width 0.2) (layer B.Cu) (net 17))
  (segment (start 69.7 44.394299) (end 69.7 44.5) (width 0.2) (layer F.Cu) (net 17))
  (via (at 69.7 46.8) (size 0.6) (drill 0.3) (layers F.Cu B.Cu) (net 17))
  (segment (start 69.7 44.5) (end 69.7 46.8) (width 0.2) (layer F.Cu) (net 17))
  (segment (start 55.6 43.411998) (end 57.312007 41.699991) (width 0.2) (layer F.Cu) (net 17))
  (segment (start 55.6 44.2) (end 55.6 43.411998) (width 0.2) (layer F.Cu) (net 17))
  (segment (start 69.7 46.8) (end 69.7 47.29614) (width 0.2) (layer B.Cu) (net 17))
  (segment (start 70.47887 48.07501) (end 71.71249 48.07501) (width 0.2) (layer B.Cu) (net 17))
  (segment (start 71.71249 48.07501) (end 72.4875 47.3) (width 0.2) (layer B.Cu) (net 17))
  (segment (start 70.9125 44.4875) (end 71.3 44.1) (width 0.2) (layer B.Cu) (net 18))
  (segment (start 70.9125 47.3) (end 70.9125 44.4875) (width 0.2) (layer B.Cu) (net 18))
  (segment (start 63.5 41.7) (end 61.25 43.98) (width 0.2) (layer B.Cu) (net 18))
  (segment (start 71 41.7) (end 63.5 41.7) (width 0.2) (layer B.Cu) (net 18))
  (segment (start 71.3 44.1) (end 71.3 41.9) (width 0.2) (layer B.Cu) (net 18))
  (segment (start 71.3 41.9) (end 71 41.7) (width 0.2) (layer B.Cu) (net 18))
  (segment (start 70.9125 51.7125) (end 71.3 52.1) (width 0.2) (layer B.Cu) (net 20))
  (segment (start 70.9125 48.9) (end 70.9125 51.7125) (width 0.2) (layer B.Cu) (net 20))
  (via (at 56.7 51) (size 0.6) (drill 0.3) (layers F.Cu B.Cu) (net 21))
  (segment (start 56.7 49.97) (end 56.65 49.92) (width 0.2) (layer B.Cu) (net 21))
  (segment (start 56.7 51) (end 56.7 49.97) (width 0.2) (layer B.Cu) (net 21))
  (segment (start 66.888002 48.9) (end 67.0125 48.9) (width 0.2) (layer B.Cu) (net 21))
  (segment (start 68.5875 52.0875) (end 68.6 52.1) (width 0.2) (layer B.Cu) (net 22))
  (segment (start 68.5875 48.9) (end 68.5875 52.0875) (width 0.2) (layer B.Cu) (net 22))
  (segment (start 61.25 50.85) (end 61.25 49.92) (width 0.2) (layer B.Cu) (net 22))
  (segment (start 61.1 51) (end 61.25 50.85) (width 0.2) (layer B.Cu) (net 22))
  (via (at 65.7 48.6) (size 0.6) (drill 0.3) (layers F.Cu B.Cu) (net 22))
  (via (at 62.7 46.4) (size 0.6) (drill 0.3) (layers F.Cu B.Cu) (net 25))
  (segment (start 65.16249 43.85001) (end 65.9 43.1125) (width 0.2) (layer B.Cu) (net 25))
  (segment (start 63.32885 43.85001) (end 65.16249 43.85001) (width 0.2) (layer B.Cu) (net 25))
  (segment (start 62.7 44.47886) (end 63.32885 43.85001) (width 0.2) (layer B.Cu) (net 25))
  (segment (start 62.7 46.4) (end 62.7 44.47886) (width 0.2) (layer B.Cu) (net 25))
  (segment (start 59.911998 46.4) (end 62.7 46.4) (width 0.2) (layer F.Cu) (net 25))
  (segment (start 59.311998 47) (end 59.911998 46.4) (width 0.2) (layer F.Cu) (net 25))
  (via (at 58.1 47) (size 0.6) (drill 0.3) (layers F.Cu B.Cu) (net 25))
  (segment (start 58.1 47) (end 59.311998 47) (width 0.2) (layer F.Cu) (net 25))
  (segment (start 57.744998 47) (end 58.1 47) (width 0.2) (layer B.Cu) (net 25))
  (segment (start 57.3 47.444998) (end 57.744998 47) (width 0.2) (layer B.Cu) (net 25))
  (segment (start 57.3 48.08) (end 57.3 47.444998) (width 0.2) (layer B.Cu) (net 25))
  (via (at 57.1 47) (size 0.6) (drill 0.3) (layers F.Cu B.Cu) (net 24) (tstamp 5F75022F))
  (segment (start 57.3 46.8) (end 57.1 47) (width 0.2) (layer B.Cu) (net 24))
  (segment (start 57.3 45.82) (end 57.3 46.8) (width 0.2) (layer B.Cu) (net 24))
  (via (at 62.3 45.3) (size 0.6) (drill 0.3) (layers F.Cu B.Cu) (net 24) (tstamp 5F7509E1))
  (segment (start 63.225 43.1125) (end 63.7 43.1125) (width 0.2) (layer B.Cu) (net 24))
  (segment (start 62.3 44.0375) (end 63.225 43.1125) (width 0.2) (layer B.Cu) (net 24))
  (segment (start 62.3 45.3) (end 62.3 44.0375) (width 0.2) (layer B.Cu) (net 24))
  (segment (start 58.711999 48.800001) (end 57.1 47.188002) (width 0.2) (layer F.Cu) (net 24))
  (segment (start 57.1 47.188002) (end 57.1 47) (width 0.2) (layer F.Cu) (net 24))
  (segment (start 61.188001 48.800001) (end 58.711999 48.800001) (width 0.2) (layer F.Cu) (net 24))
  (segment (start 63.300001 46.688001) (end 61.188001 48.800001) (width 0.2) (layer F.Cu) (net 24))
  (segment (start 63.300001 45.875737) (end 63.300001 46.688001) (width 0.2) (layer F.Cu) (net 24))
  (segment (start 62.724264 45.3) (end 63.300001 45.875737) (width 0.2) (layer F.Cu) (net 24))
  (segment (start 62.3 45.3) (end 62.724264 45.3) (width 0.2) (layer F.Cu) (net 24))
  (via (at 58.3 51) (size 0.6) (drill 0.3) (layers F.Cu B.Cu) (net 26))
  (segment (start 58.3 51.7125) (end 58 52.0125) (width 0.2) (layer B.Cu) (net 26))
  (segment (start 58.3 51) (end 58.3 51.7125) (width 0.2) (layer B.Cu) (net 26))
  (segment (start 60.500001 50.019999) (end 60.6 49.92) (width 0.2) (layer B.Cu) (net 26))
  (segment (start 60.245002 51) (end 60.500001 50.745001) (width 0.2) (layer B.Cu) (net 26))
  (via (at 60.3 51) (size 0.6) (drill 0.3) (layers F.Cu B.Cu) (net 26))
  (segment (start 60.500001 50.745001) (end 60.500001 50.019999) (width 0.2) (layer B.Cu) (net 26))
  (segment (start 60.3 51) (end 60.245002 51) (width 0.2) (layer B.Cu) (net 26))
  (via (at 59.6 51) (size 0.6) (drill 0.3) (layers F.Cu B.Cu) (net 20) (tstamp 5F750C55))
  (segment (start 59.6 50.27) (end 59.95 49.92) (width 0.2) (layer B.Cu) (net 20))
  (segment (start 59.6 51) (end 59.6 50.27) (width 0.2) (layer B.Cu) (net 20))
  (via (at 62.3 50.1) (size 0.6) (drill 0.3) (layers F.Cu B.Cu) (net 20) (tstamp 5F750EBA))
  (segment (start 60.075736 50.1) (end 62.3 50.1) (width 0.2) (layer F.Cu) (net 20))
  (segment (start 59.6 50.575736) (end 60.075736 50.1) (width 0.2) (layer F.Cu) (net 20))
  (segment (start 59.6 51) (end 59.6 50.575736) (width 0.2) (layer F.Cu) (net 20))
  (segment (start 71.3 54.3) (end 71.3 52.1) (width 0.2) (layer B.Cu) (net 20))
  (segment (start 71.099999 54.500001) (end 71.3 54.3) (width 0.2) (layer B.Cu) (net 20))
  (segment (start 65.611999 54.500001) (end 71.099999 54.500001) (width 0.2) (layer B.Cu) (net 20))
  (segment (start 64.9 53.788002) (end 65.611999 54.500001) (width 0.2) (layer B.Cu) (net 20))
  (segment (start 64.9 52.47886) (end 64.9 53.788002) (width 0.2) (layer B.Cu) (net 20))
  (segment (start 63.62887 52.14999) (end 64.57113 52.14999) (width 0.2) (layer B.Cu) (net 20))
  (segment (start 64.57113 52.14999) (end 64.9 52.47886) (width 0.2) (layer B.Cu) (net 20))
  (segment (start 63.300001 51.821121) (end 63.62887 52.14999) (width 0.2) (layer B.Cu) (net 20))
  (segment (start 63.300001 51.100001) (end 63.300001 51.821121) (width 0.2) (layer B.Cu) (net 20))
  (segment (start 62.3 50.1) (end 63.300001 51.100001) (width 0.2) (layer B.Cu) (net 20))
  (via (at 64.9 48) (size 0.6) (drill 0.3) (layers F.Cu B.Cu) (net 21))
  (segment (start 56.7 50.175736) (end 56.7 51) (width 0.2) (layer F.Cu) (net 21))
  (segment (start 57.637868 49.237868) (end 56.7 50.175736) (width 0.2) (layer F.Cu) (net 21))
  (segment (start 64.9 48) (end 64.1 49.2) (width 0.2) (layer F.Cu) (net 21))
  (segment (start 64.1 49.2) (end 57.637868 49.237868) (width 0.2) (layer F.Cu) (net 21))
  (segment (start 64.5 48.6) (end 65.7 48.6) (width 0.2) (layer B.Cu) (net 22))
  (via (at 63.6 50.3) (size 0.6) (drill 0.3) (layers F.Cu B.Cu) (net 22))
  (segment (start 62.1 51) (end 61.1 51) (width 0.2) (layer F.Cu) (net 22))
  (segment (start 63.6 50.3) (end 62.1 51) (width 0.2) (layer F.Cu) (net 22))
  (segment (start 63.6 50.3) (end 64.5 48.6) (width 0.2) (layer B.Cu) (net 22))
  (via (at 65.9 53.9) (size 0.6) (drill 0.3) (layers F.Cu B.Cu) (net 22))
  (segment (start 66.7 53.9) (end 68.6 52.1) (width 0.2) (layer B.Cu) (net 22))
  (segment (start 65.9 53.9) (end 66.7 53.9) (width 0.2) (layer B.Cu) (net 22))
  (segment (start 67.550001 49.818617) (end 66.6 48.6) (width 0.2) (layer F.Cu) (net 22))
  (segment (start 67.550001 53.390001) (end 67.550001 49.818617) (width 0.2) (layer F.Cu) (net 22))
  (segment (start 66.6 48.6) (end 65.7 48.6) (width 0.2) (layer F.Cu) (net 22))
  (segment (start 65.9 53.9) (end 66.9 53.9) (width 0.2) (layer F.Cu) (net 22))
  (segment (start 66.9 53.9) (end 67.550001 53.390001) (width 0.2) (layer F.Cu) (net 22))
  (segment (start 60.124263 51.600001) (end 58.900001 51.600001) (width 0.2) (layer F.Cu) (net 26))
  (segment (start 58.900001 51.600001) (end 58.3 51) (width 0.2) (layer F.Cu) (net 26))
  (segment (start 60.3 51.424264) (end 60.124263 51.600001) (width 0.2) (layer F.Cu) (net 26))
  (segment (start 60.3 51) (end 60.3 51.424264) (width 0.2) (layer F.Cu) (net 26))

)
