EESchema Schematic File Version 4
EELAYER 30 0
EELAYER END
$Descr A4 11693 8268
encoding utf-8
Sheet 2 2
Title ""
Date ""
Rev ""
Comp ""
Comment1 ""
Comment2 ""
Comment3 ""
Comment4 ""
$EndDescr
$Comp
L Device:LED D2
U 1 1 5F79ABB1
P 9000 2850
F 0 "D2" V 8945 2928 50  0000 L CNN
F 1 "LED" V 9036 2928 50  0000 L CNN
F 2 "" H 9000 2850 50  0001 C CNN
F 3 "~" H 9000 2850 50  0001 C CNN
F 4 "D" H 9000 2850 50  0001 C CNN "Spice_Primitive"
F 5 "led" H 9000 2850 50  0001 C CNN "Spice_Model"
F 6 "Y" H 9000 2850 50  0001 C CNN "Spice_Netlist_Enabled"
F 7 "D:\\Projects\\_electronics\\bottle_lights\\led.lib" H 9000 2850 50  0001 C CNN "Spice_Lib_File"
	1    9000 2850
	0    1    1    0   
$EndComp
$Comp
L Device:LED D4
U 1 1 5F79ABBB
P 9350 2850
F 0 "D4" V 9388 2733 50  0000 R CNN
F 1 "LED" V 9297 2733 50  0000 R CNN
F 2 "" H 9350 2850 50  0001 C CNN
F 3 "~" H 9350 2850 50  0001 C CNN
F 4 "D" H 9350 2850 50  0001 C CNN "Spice_Primitive"
F 5 "led" H 9350 2850 50  0001 C CNN "Spice_Model"
F 6 "Y" H 9350 2850 50  0001 C CNN "Spice_Netlist_Enabled"
F 7 "D:\\Projects\\_electronics\\bottle_lights\\led.lib" H 9350 2850 50  0001 C CNN "Spice_Lib_File"
	1    9350 2850
	0    -1   -1   0   
$EndComp
$Comp
L Device:LED D1
U 1 1 5F79ABC5
P 9000 1650
F 0 "D1" V 8945 1728 50  0000 L CNN
F 1 "LED" V 9036 1728 50  0000 L CNN
F 2 "" H 9000 1650 50  0001 C CNN
F 3 "~" H 9000 1650 50  0001 C CNN
F 4 "D" H 9000 1650 50  0001 C CNN "Spice_Primitive"
F 5 "led" H 9000 1650 50  0001 C CNN "Spice_Model"
F 6 "Y" H 9000 1650 50  0001 C CNN "Spice_Netlist_Enabled"
F 7 "D:\\Projects\\_electronics\\bottle_lights\\led.lib" H 9000 1650 50  0001 C CNN "Spice_Lib_File"
	1    9000 1650
	0    1    1    0   
$EndComp
$Comp
L Device:LED D3
U 1 1 5F79ABCF
P 9350 1650
F 0 "D3" V 9388 1533 50  0000 R CNN
F 1 "LED" V 9297 1533 50  0000 R CNN
F 2 "" H 9350 1650 50  0001 C CNN
F 3 "~" H 9350 1650 50  0001 C CNN
F 4 "D" H 9350 1650 50  0001 C CNN "Spice_Primitive"
F 5 "led" H 9350 1650 50  0001 C CNN "Spice_Model"
F 6 "Y" H 9350 1650 50  0001 C CNN "Spice_Netlist_Enabled"
F 7 "D:\\Projects\\_electronics\\bottle_lights\\led.lib" H 9350 1650 50  0001 C CNN "Spice_Lib_File"
	1    9350 1650
	0    -1   -1   0   
$EndComp
$Comp
L power:+5V #PWR010
U 1 1 5F79ABD5
P 6600 2100
F 0 "#PWR010" H 6600 1950 50  0001 C CNN
F 1 "+5V" V 6615 2228 50  0000 L CNN
F 2 "" H 6600 2100 50  0001 C CNN
F 3 "" H 6600 2100 50  0001 C CNN
	1    6600 2100
	0    1    1    0   
$EndComp
$Comp
L Device:R R1
U 1 1 5F79ABDB
P 4050 2200
F 0 "R1" H 3980 2154 50  0000 R CNN
F 1 "100R" H 3980 2245 50  0000 R CNN
F 2 "" V 3980 2200 50  0001 C CNN
F 3 "~" H 4050 2200 50  0001 C CNN
	1    4050 2200
	0    1    1    0   
$EndComp
$Comp
L power:GND #PWR07
U 1 1 5F79ABE1
P 4500 4350
F 0 "#PWR07" H 4500 4100 50  0001 C CNN
F 1 "GND" H 4505 4177 50  0000 C CNN
F 2 "" H 4500 4350 50  0001 C CNN
F 3 "" H 4500 4350 50  0001 C CNN
	1    4500 4350
	0    1    1    0   
$EndComp
$Comp
L UMZ1NTR:UMZ1NTR U2
U 1 1 5F79ABEB
P 4500 2100
F 0 "U2" H 5550 2487 60  0000 C CNN
F 1 "UMZ1NTR" H 5550 2381 60  0000 C CNN
F 2 "TRANS_UM6J1_ROM" H 5550 2340 60  0001 C CNN
F 3 "" H 4500 2100 60  0000 C CNN
F 4 "X" H 4500 2100 50  0001 C CNN "Spice_Primitive"
F 5 "UMZ1N" H 4500 2100 50  0001 C CNN "Spice_Model"
F 6 "Y" H 4500 2100 50  0001 C CNN "Spice_Netlist_Enabled"
F 7 "D:\\Projects\\_electronics\\bottle_lights\\umz1n.lib" H 4500 2100 50  0001 C CNN "Spice_Lib_File"
	1    4500 2100
	1    0    0    -1  
$EndComp
$Comp
L UMZ1NTR:UMZ1NTR U3
U 1 1 5F79ABF5
P 4500 3100
F 0 "U3" H 5550 3487 60  0000 C CNN
F 1 "UMZ1NTR" H 5550 3381 60  0000 C CNN
F 2 "TRANS_UM6J1_ROM" H 5550 3340 60  0001 C CNN
F 3 "" H 4500 3100 60  0000 C CNN
F 4 "X" H 4500 3100 50  0001 C CNN "Spice_Primitive"
F 5 "UMZ1N" H 4500 3100 50  0001 C CNN "Spice_Model"
F 6 "Y" H 4500 3100 50  0001 C CNN "Spice_Netlist_Enabled"
F 7 "D:\\Projects\\_electronics\\bottle_lights\\umz1n.lib" H 4500 3100 50  0001 C CNN "Spice_Lib_File"
	1    4500 3100
	1    0    0    -1  
$EndComp
$Comp
L UMZ1NTR:UMZ1NTR U4
U 1 1 5F79ABFF
P 4500 4150
F 0 "U4" H 5550 4537 60  0000 C CNN
F 1 "UMZ1NTR" H 5550 4431 60  0000 C CNN
F 2 "TRANS_UM6J1_ROM" H 5550 4390 60  0001 C CNN
F 3 "" H 4500 4150 60  0000 C CNN
F 4 "X" H 4500 4150 50  0001 C CNN "Spice_Primitive"
F 5 "UMZ1N" H 4500 4150 50  0001 C CNN "Spice_Model"
F 6 "Y" H 4500 4150 50  0001 C CNN "Spice_Netlist_Enabled"
F 7 "D:\\Projects\\_electronics\\bottle_lights\\umz1n.lib" H 4500 4150 50  0001 C CNN "Spice_Lib_File"
	1    4500 4150
	1    0    0    -1  
$EndComp
$Comp
L UMZ1NTR:UMZ1NTR U5
U 1 1 5F79AC09
P 4500 5150
F 0 "U5" H 5550 5537 60  0000 C CNN
F 1 "UMZ1NTR" H 5550 5431 60  0000 C CNN
F 2 "TRANS_UM6J1_ROM" H 5550 5390 60  0001 C CNN
F 3 "" H 4500 5150 60  0000 C CNN
F 4 "X" H 4500 5150 50  0001 C CNN "Spice_Primitive"
F 5 "UMZ1N" H 4500 5150 50  0001 C CNN "Spice_Model"
F 6 "Y" H 4500 5150 50  0001 C CNN "Spice_Netlist_Enabled"
F 7 "D:\\Projects\\_electronics\\bottle_lights\\umz1n.lib" H 4500 5150 50  0001 C CNN "Spice_Lib_File"
	1    4500 5150
	1    0    0    -1  
$EndComp
$Comp
L Device:R R2
U 1 1 5F79AC0F
P 4050 3200
F 0 "R2" H 3980 3154 50  0000 R CNN
F 1 "100R" H 3980 3245 50  0000 R CNN
F 2 "" V 3980 3200 50  0001 C CNN
F 3 "~" H 4050 3200 50  0001 C CNN
	1    4050 3200
	0    1    1    0   
$EndComp
$Comp
L Device:R R5
U 1 1 5F79AC15
P 4350 2100
F 0 "R5" H 4280 2054 50  0000 R CNN
F 1 "47R" H 4280 2145 50  0000 R CNN
F 2 "" V 4280 2100 50  0001 C CNN
F 3 "~" H 4350 2100 50  0001 C CNN
	1    4350 2100
	0    1    1    0   
$EndComp
$Comp
L Device:R R4
U 1 1 5F79AC1B
P 4050 5250
F 0 "R4" H 3980 5204 50  0000 R CNN
F 1 "1k" H 3980 5295 50  0000 R CNN
F 2 "" V 3980 5250 50  0001 C CNN
F 3 "~" H 4050 5250 50  0001 C CNN
	1    4050 5250
	0    1    1    0   
$EndComp
$Comp
L Device:R R9
U 1 1 5F79AC21
P 6950 4250
F 0 "R9" H 6880 4204 50  0000 R CNN
F 1 "100R" H 6880 4295 50  0000 R CNN
F 2 "" V 6880 4250 50  0001 C CNN
F 3 "~" H 6950 4250 50  0001 C CNN
	1    6950 4250
	0    1    1    0   
$EndComp
$Comp
L Device:R R10
U 1 1 5F79AC27
P 6950 5250
F 0 "R10" H 6880 5204 50  0000 R CNN
F 1 "100R" H 6880 5295 50  0000 R CNN
F 2 "" V 6880 5250 50  0001 C CNN
F 3 "~" H 6950 5250 50  0001 C CNN
	1    6950 5250
	0    1    1    0   
$EndComp
$Comp
L Device:R R3
U 1 1 5F79AC2D
P 4050 4250
F 0 "R3" H 3980 4204 50  0000 R CNN
F 1 "1k" H 3980 4295 50  0000 R CNN
F 2 "" V 3980 4250 50  0001 C CNN
F 3 "~" H 4050 4250 50  0001 C CNN
	1    4050 4250
	0    1    1    0   
$EndComp
$Comp
L Device:R R11
U 1 1 5F79AC33
P 7000 2200
F 0 "R11" H 6930 2154 50  0000 R CNN
F 1 "31k" H 6930 2245 50  0000 R CNN
F 2 "" V 6930 2200 50  0001 C CNN
F 3 "~" H 7000 2200 50  0001 C CNN
	1    7000 2200
	0    1    1    0   
$EndComp
$Comp
L Device:R R12
U 1 1 5F79AC39
P 7000 3200
F 0 "R12" H 6930 3154 50  0000 R CNN
F 1 "31k" H 6930 3245 50  0000 R CNN
F 2 "" V 6930 3200 50  0001 C CNN
F 3 "~" H 7000 3200 50  0001 C CNN
	1    7000 3200
	0    1    1    0   
$EndComp
$Comp
L power:+5V #PWR012
U 1 1 5F79AC3F
P 6600 3100
F 0 "#PWR012" H 6600 2950 50  0001 C CNN
F 1 "+5V" V 6615 3228 50  0000 L CNN
F 2 "" H 6600 3100 50  0001 C CNN
F 3 "" H 6600 3100 50  0001 C CNN
	1    6600 3100
	0    1    1    0   
$EndComp
$Comp
L power:+5V #PWR011
U 1 1 5F79AC45
P 6600 2300
F 0 "#PWR011" H 6600 2150 50  0001 C CNN
F 1 "+5V" V 6615 2428 50  0000 L CNN
F 2 "" H 6600 2300 50  0001 C CNN
F 3 "" H 6600 2300 50  0001 C CNN
	1    6600 2300
	0    1    1    0   
$EndComp
$Comp
L power:+5V #PWR013
U 1 1 5F79AC4B
P 6600 3300
F 0 "#PWR013" H 6600 3150 50  0001 C CNN
F 1 "+5V" V 6615 3428 50  0000 L CNN
F 2 "" H 6600 3300 50  0001 C CNN
F 3 "" H 6600 3300 50  0001 C CNN
	1    6600 3300
	0    1    1    0   
$EndComp
$Comp
L power:GND #PWR09
U 1 1 5F79AC51
P 4500 5350
F 0 "#PWR09" H 4500 5100 50  0001 C CNN
F 1 "GND" H 4505 5177 50  0000 C CNN
F 2 "" H 4500 5350 50  0001 C CNN
F 3 "" H 4500 5350 50  0001 C CNN
	1    4500 5350
	0    1    1    0   
$EndComp
$Comp
L power:GND #PWR08
U 1 1 5F79AC57
P 4500 5150
F 0 "#PWR08" H 4500 4900 50  0001 C CNN
F 1 "GND" H 4505 4977 50  0000 C CNN
F 2 "" H 4500 5150 50  0001 C CNN
F 3 "" H 4500 5150 50  0001 C CNN
	1    4500 5150
	0    1    1    0   
$EndComp
$Comp
L power:GND #PWR06
U 1 1 5F79AC5D
P 4500 4150
F 0 "#PWR06" H 4500 3900 50  0001 C CNN
F 1 "GND" H 4505 3977 50  0000 C CNN
F 2 "" H 4500 4150 50  0001 C CNN
F 3 "" H 4500 4150 50  0001 C CNN
	1    4500 4150
	0    1    1    0   
$EndComp
Wire Wire Line
	4200 5250 4500 5250
Text Label 3800 5250 2    50   ~ 0
pin5
Wire Wire Line
	4200 4250 4500 4250
Wire Wire Line
	6600 4250 6800 4250
Wire Wire Line
	6600 5250 6800 5250
Text Label 7200 4250 0    50   ~ 0
pin5
Text Label 7200 5250 0    50   ~ 0
pin5
Wire Wire Line
	4200 3200 4500 3200
Wire Wire Line
	4200 2200 4500 2200
Wire Wire Line
	6600 3200 6850 3200
Wire Wire Line
	6600 2200 6850 2200
Text Label 3800 2200 2    50   ~ 0
pin6
Text Label 3800 3200 2    50   ~ 0
pin7
Text Label 7250 3200 0    50   ~ 0
pin8
Text Label 7250 2200 0    50   ~ 0
pin9
Wire Wire Line
	9000 1500 9350 1500
Connection ~ 9000 1500
Wire Wire Line
	9400 1550 9350 1550
Wire Wire Line
	9350 1550 9350 1500
Connection ~ 9350 1500
Wire Wire Line
	9350 1800 9000 1800
Connection ~ 9000 1800
Wire Wire Line
	9350 2700 9000 2700
Connection ~ 9000 2700
Wire Wire Line
	9350 3000 9000 3000
Connection ~ 9000 3000
$Comp
L Device:R R6
U 1 1 5F79AC7D
P 4350 2300
F 0 "R6" H 4280 2254 50  0000 R CNN
F 1 "47R" H 4280 2345 50  0000 R CNN
F 2 "" V 4280 2300 50  0001 C CNN
F 3 "~" H 4350 2300 50  0001 C CNN
	1    4350 2300
	0    -1   -1   0   
$EndComp
Wire Wire Line
	4200 2100 4200 1500
Wire Wire Line
	4200 1500 7500 1500
Wire Wire Line
	4200 2300 4200 2600
Wire Wire Line
	4200 2600 7650 2600
Wire Wire Line
	7650 2600 7650 1800
Wire Wire Line
	7650 1800 9000 1800
Wire Wire Line
	8100 3600 8100 3000
Wire Wire Line
	8100 3000 9000 3000
Wire Wire Line
	8100 3600 8100 5350
Wire Wire Line
	8100 5350 6600 5350
Connection ~ 8100 3600
Connection ~ 7650 2600
Wire Wire Line
	7650 4350 6600 4350
Wire Wire Line
	7650 2600 7650 4350
Wire Wire Line
	7500 1500 7500 4150
Wire Wire Line
	7500 4150 6600 4150
Connection ~ 7500 1500
Wire Wire Line
	7500 1500 9000 1500
Wire Wire Line
	7950 2700 7950 5150
Wire Wire Line
	7950 5150 6600 5150
Connection ~ 7950 2700
Wire Wire Line
	7950 2700 9000 2700
Text Label 3800 4250 2    50   ~ 0
pin5
Wire Wire Line
	7150 2200 7250 2200
Wire Wire Line
	7150 3200 7250 3200
Wire Wire Line
	7100 4250 7200 4250
Wire Wire Line
	7100 5250 7200 5250
Wire Wire Line
	3800 5250 3900 5250
Wire Wire Line
	3800 4250 3900 4250
Wire Wire Line
	3800 3200 3900 3200
Wire Wire Line
	3800 2200 3900 2200
Text Notes 8300 5100 0    250  ~ 50
.op
$Comp
L Device:R R7
U 1 1 5F79ACA3
P 4350 3100
F 0 "R7" H 4280 3054 50  0000 R CNN
F 1 "47R" H 4280 3145 50  0000 R CNN
F 2 "" V 4280 3100 50  0001 C CNN
F 3 "~" H 4350 3100 50  0001 C CNN
	1    4350 3100
	0    1    1    0   
$EndComp
$Comp
L Device:R R8
U 1 1 5F79ACA9
P 4350 3300
F 0 "R8" H 4280 3254 50  0000 R CNN
F 1 "47R" H 4280 3345 50  0000 R CNN
F 2 "" V 4280 3300 50  0001 C CNN
F 3 "~" H 4350 3300 50  0001 C CNN
	1    4350 3300
	0    -1   -1   0   
$EndComp
Wire Wire Line
	4150 3600 4150 3300
Wire Wire Line
	4150 3300 4200 3300
Wire Wire Line
	4150 3600 8100 3600
Wire Wire Line
	4150 2700 4150 3100
Wire Wire Line
	4150 3100 4200 3100
Wire Wire Line
	4150 2700 7950 2700
Text Label 2900 1700 0    50   ~ 0
pin9
Text Label 2900 2000 0    50   ~ 0
pin7
Text Label 2900 1850 0    50   ~ 0
pin8
Text Label 2900 2150 0    50   ~ 0
pin6
Text Label 1350 1900 2    50   ~ 0
pin5
$Comp
L Device:Battery_Cell V?
U 1 1 5F7B3DE0
P 2050 1950
AR Path="/5F7B3DE0" Ref="V?"  Part="1" 
AR Path="/5F7559D3/5F7B3DE0" Ref="V1"  Part="1" 
F 0 "V1" H 2168 2046 50  0000 L CNN
F 1 "DC 5" H 2168 1955 50  0000 L CNN
F 2 "" V 2050 2010 50  0001 C CNN
F 3 "~" V 2050 2010 50  0001 C CNN
	1    2050 1950
	1    0    0    -1  
$EndComp
Wire Wire Line
	2550 1700 2900 1700
Wire Wire Line
	2550 1850 2900 1850
Wire Wire Line
	2550 1700 2550 1850
Connection ~ 2550 1850
Wire Wire Line
	2550 2000 2900 2000
Wire Wire Line
	2550 2150 2550 2000
Wire Wire Line
	2550 2150 2900 2150
Connection ~ 2550 2000
$Comp
L power:GND #PWR?
U 1 1 5F7B3DEE
P 2050 2200
AR Path="/5F7B3DEE" Ref="#PWR?"  Part="1" 
AR Path="/5F7559D3/5F7B3DEE" Ref="#PWR05"  Part="1" 
F 0 "#PWR05" H 2050 1950 50  0001 C CNN
F 1 "GND" H 2055 2027 50  0000 C CNN
F 2 "" H 2050 2200 50  0001 C CNN
F 3 "" H 2050 2200 50  0001 C CNN
	1    2050 2200
	1    0    0    -1  
$EndComp
$Comp
L power:VCC #PWR?
U 1 1 5F7B3DF4
P 2050 1650
AR Path="/5F7B3DF4" Ref="#PWR?"  Part="1" 
AR Path="/5F7559D3/5F7B3DF4" Ref="#PWR04"  Part="1" 
F 0 "#PWR04" H 2050 1500 50  0001 C CNN
F 1 "VCC" H 2065 1823 50  0000 C CNN
F 2 "" H 2050 1650 50  0001 C CNN
F 3 "" H 2050 1650 50  0001 C CNN
	1    2050 1650
	1    0    0    -1  
$EndComp
Wire Wire Line
	2050 1750 2050 1700
Wire Wire Line
	2050 2050 2050 2150
Wire Wire Line
	2150 2000 2150 2150
Wire Wire Line
	2150 2150 2050 2150
Connection ~ 2050 2150
Wire Wire Line
	2050 2150 2050 2200
Wire Wire Line
	1950 2000 1950 2150
Wire Wire Line
	1950 2150 2050 2150
Wire Wire Line
	2050 1700 1950 1700
Wire Wire Line
	1950 1700 1950 1800
Connection ~ 2050 1700
Wire Wire Line
	2050 1700 2050 1650
Wire Wire Line
	2150 1800 2150 1700
Wire Wire Line
	2150 1700 2050 1700
Wire Wire Line
	2550 1850 2550 1900
Wire Wire Line
	1350 1900 1550 1900
Wire Wire Line
	1550 1900 1550 2000
Wire Wire Line
	1550 2000 1950 2000
Wire Wire Line
	2550 1900 2400 1900
Wire Wire Line
	2400 1900 2400 1800
Connection ~ 2550 1900
Wire Wire Line
	2550 1900 2550 2000
Wire Wire Line
	2400 1800 2150 1800
$EndSCHEMATC
